Division,WeightClassKg,Place,Name,Team,BodyweightKg,Best3SquatKg,Best3BenchKg,Best3DeadliftKg,TotalKg,Equipment,Event,Sex
Boys,51.71,1,Damian Loza,Roscoe,49.99,120.2,65.77,129.27,315.25,Single-ply,SBD,M
Boys,51.71,2,Gene Williams,Slaton,44.91,104.33,47.63,122.47,274.42,Single-ply,SBD,M
Boys,51.71,3,Pj Horton,Forsan,49.26,102.06,56.7,115.67,274.42,Single-ply,SBD,M
Boys,51.71,4,Dusty Salmon,Coahoma,50.98,102.06,45.36,117.93,265.35,Single-ply,SBD,M
Boys,51.71,5,Wesley Payton,Lamesa,47.81,88.45,61.23,102.06,251.74,Single-ply,SBD,M
Boys,51.71,6,Edward Hernandez,Eldorado,46.99,88.45,54.43,95.25,238.14,Single-ply,SBD,M
Boys,51.71,7,Hunter Lowery,Coahoma,50.98,61.23,52.16,104.33,217.72,Single-ply,SBD,M
Boys,51.71,8,Jared Gandy,Mertzon Irion County,42.64,72.57,45.36,86.18,204.12,Single-ply,SBD,M
Boys,51.71,9,Taylor White,San Angelo Grape Creek,49.9,74.84,45.36,81.65,201.85,Single-ply,SBD,M
Boys,51.71,10,Chris Deleon,Roscoe,51.71,97.52,,,97.52,Single-ply,S,M
Boys,55.79,1,Evan Valenzuela,Midland,53.75,136.08,79.38,145.15,360.61,Single-ply,SBD,M
Boys,55.79,2,Austin Martinez,Mertzon Irion County,55.11,136.08,77.11,136.08,349.27,Single-ply,SBD,M
Boys,55.79,3,Jesse Ramirez #2,San Angelo Lake View,52.16,120.2,72.57,145.15,337.93,Single-ply,SBD,M
Boys,55.79,4,Jordan Uriegas,San Angelo Lake View,55.25,124.74,63.5,138.35,326.59,Single-ply,SBD,M
Boys,55.79,5,Tyler Pacheco,San Angelo Lake View,55.25,127.01,63.5,127.01,317.51,Single-ply,SBD,M
Boys,55.79,6,Pablo Hinojosa,Lamesa,55.7,122.47,61.23,124.74,308.44,Single-ply,SBD,M
Boys,55.79,7,Austin Carrasco,Roscoe,55.11,102.06,68.04,136.08,306.17,Single-ply,SBD,M
Boys,55.79,8,Emilio Morales,Roscoe,55.79,124.74,52.16,120.2,297.1,Single-ply,SBD,M
Boys,55.79,9,Ryan Hurst,San Angelo Grape Creek,55.11,95.25,47.63,124.74,267.62,Single-ply,SBD,M
Boys,55.79,10,Tevin Cordova,Ozona,53.71,68.04,63.5,108.86,240.4,Single-ply,SBD,M
Boys,67.13,1,Ben Merworth,Big Spring,60.1,142.88,108.86,147.42,399.16,Single-ply,SBD,M
Boys,67.13,2,Guillermo Cazares,Slaton,59.96,131.54,81.65,163.29,376.48,Single-ply,SBD,M
Boys,59.87,3,Victor Muro,San Angelo Lake View,59.15,115.67,79.38,149.69,344.73,Single-ply,SBD,M
Boys,59.87,4,John Hernandez,San Angelo Lake View,58.24,117.93,77.11,145.15,340.19,Single-ply,SBD,M
Boys,59.87,5,Marcus Renteria,Lamesa,56.97,117.93,81.65,133.81,333.39,Single-ply,SBD,M
Boys,59.87,6,Dalton Doss,Forsan,59.15,133.81,74.84,124.74,333.39,Single-ply,SBD,M
Boys,59.87,7,Julio Dominguez,San Angelo Lake View,58.42,106.59,63.5,151.95,322.05,Single-ply,SBD,M
Boys,59.87,8,Josh Cady,San Angelo Lake View,58.69,108.86,77.11,122.47,308.44,Single-ply,SBD,M
Boys,67.13,9,Marcos Cervantes,Forsan,59.96,95.25,72.57,133.81,301.64,Single-ply,SBD,M
Boys,67.13,10,Luke Humble,Coahoma,60.06,83.91,61.23,102.06,247.21,Single-ply,SBD,M
Boys,59.87,11,Damian Cate,Coahoma,58.06,68.04,45.36,65.77,179.17,Single-ply,SBD,M
Boys,59.87,12,Zach Hernandez,Big Spring,57.29,151.95,,,151.95,Single-ply,S,M
Boys,59.87,13,Brennon Moore,Roscoe,59.19,97.52,,,97.52,Single-ply,S,M
Boys,59.87,DQ,Wilton Russell,Ozona,56.7,,,,,Single-ply,S,M
Boys,59.87,DQ,Dj Rocha,Big Spring,56.93,,,,,Single-ply,S,M
Boys,67.13,1,Choeung Sei,Snyder,61.05,181.44,113.4,167.83,462.66,Single-ply,SBD,M
Boys,67.13,2,Justin Coker,Coahoma,65.68,167.83,104.33,181.44,453.59,Single-ply,SBD,M
Boys,67.13,3,Jake Hernandez,Big Spring,62.87,158.76,102.06,149.69,410.5,Single-ply,SBD,M
Boys,67.13,4,Juan Esquivel,Slaton,66.04,149.69,72.57,181.44,403.7,Single-ply,SBD,M
Boys,67.13,5,Devonte Carson,San Angelo Lake View,66.77,149.69,74.84,174.63,399.16,Single-ply,SBD,M
Boys,67.13,6,Tim Davila,Forsan,63.32,154.22,81.65,158.76,394.63,Single-ply,SBD,M
Boys,67.13,7,Jonathan Robinson,San Angelo Lake View,66.32,133.81,86.18,163.29,383.29,Single-ply,SBD,M
Boys,67.13,8,Cesar Chavez,Midland,67.13,136.08,81.65,154.22,371.95,Single-ply,SBD,M
Boys,67.13,9,Valentin Gomez,Mertzon Irion County,64.64,138.35,65.77,147.42,351.53,Single-ply,SBD,M
Boys,67.13,10,Jose Rangel,Roscoe,65.54,136.08,74.84,140.61,351.53,Single-ply,SBD,M
Boys,67.13,11,James Lester,San Angelo Lake View,64.59,120.2,65.77,149.69,335.66,Single-ply,SBD,M
Boys,67.13,12,Rico Martinez,Eldorado,66.41,120.2,81.65,127.01,328.85,Single-ply,SBD,M
Boys,67.13,13,Cody Jones,Forsan,66.13,113.4,65.77,145.15,324.32,Single-ply,SBD,M
Boys,67.13,14,Hunter Sykes,San Angelo Lake View,60.78,104.33,72.57,131.54,308.44,Single-ply,SBD,M
Boys,67.13,15,Rocky Venegas,Ozona,64.05,102.06,72.57,104.33,278.96,Single-ply,SBD,M
Boys,67.13,16,Bryce Bender,Midland,64.18,92.99,56.7,127.01,276.69,Single-ply,SBD,M
Boys,67.13,17,Eduardo Gallegos,Roscoe,61.96,83.91,61.23,117.93,263.08,Single-ply,SBD,M
Boys,67.13,18,Noah Tambunga,Ozona,66.77,83.91,56.7,104.33,244.94,Single-ply,SBD,M
Boys,67.13,19,Martin Zambrano,Big Spring,64.86,138.35,,,138.35,Single-ply,S,M
Boys,74.84,1,Miguel Rangel,Roscoe,72.3,226.8,136.08,213.19,576.06,Single-ply,SBD,M
Boys,74.84,2,Blaze Wooten,Midland,73.94,183.7,102.06,179.17,464.93,Single-ply,SBD,M
Boys,74.84,3,Adam Gante,Slaton,72.35,167.83,102.06,181.44,451.32,Single-ply,SBD,M
Boys,74.84,4,John Flores,Big Spring,70.76,163.29,104.33,181.44,449.06,Single-ply,SBD,M
Boys,82.1,5,Ben Bowman,San Angelo Central,75.02,181.44,90.72,174.63,446.79,Single-ply,SBD,M
Boys,74.84,6,Wes Brown,Eldorado,74.75,142.88,113.4,183.7,439.98,Single-ply,SBD,M
Boys,74.84,7,Kyle Dean,Ozona,68.4,185.97,90.72,158.76,435.45,Single-ply,SBD,M
Boys,74.84,8,Dustin Dove,San Angelo Grape Creek,69.85,156.49,97.52,181.44,435.45,Single-ply,SBD,M
Boys,74.84,9,Caleb Morales,Lamesa,71.76,165.56,95.25,158.76,419.57,Single-ply,SBD,M
Boys,74.84,10,Levi Shriver,Eldorado,72.39,142.88,97.52,176.9,417.3,Single-ply,SBD,M
Boys,74.84,11,Aaron Goff,Forsan,68.13,154.22,79.38,181.44,415.04,Single-ply,SBD,M
Boys,74.84,12,Jonathan Williams,Forsan,72.48,147.42,79.38,181.44,408.23,Single-ply,SBD,M
Boys,74.84,13,Michael Mims,Forsan,70.85,147.42,77.11,172.37,396.89,Single-ply,SBD,M
Boys,74.84,14,Salvador Gonzalez,San Angelo Lake View,67.68,145.15,86.18,158.76,390.09,Single-ply,SBD,M
Boys,74.84,15,Jesus Ramirez,Midland,73.48,145.15,92.99,142.88,381.02,Single-ply,SBD,M
Boys,74.84,16,Anthony Brewer,San Angelo Grape Creek,73.3,142.88,81.65,154.22,378.75,Single-ply,SBD,M
Boys,74.84,17,Jeff Hoertz,San Angelo Central,74.48,163.29,88.45,124.74,376.48,Single-ply,SBD,M
Boys,74.84,18,Rudy Sanchez,Eldorado,72.94,115.67,92.99,142.88,351.53,Single-ply,SBD,M
Boys,74.84,19,John Wilbanks,Midland,68.13,115.67,83.91,147.42,347,Single-ply,SBD,M
Boys,74.84,20,Ochan Parra,Big Spring,69.4,136.08,72.57,138.35,347,Single-ply,SBD,M
Boys,74.84,21,Devon Freeman,Roscoe,71.67,115.67,72.57,136.08,324.32,Single-ply,SBD,M
Boys,74.84,22,Adrian Revell,San Angelo Grape Creek,73.84,122.47,72.57,124.74,319.78,Single-ply,SBD,M
Boys,74.84,23,Beau Yarman,Midland,68.67,102.06,,,102.06,Single-ply,S,M
Boys,82.1,1,Hunter Henzler,Slaton,79.56,215.46,102.06,215.46,532.97,Single-ply,SBD,M
Boys,82.1,2,Efrain Vasquez,Midland,80.65,197.31,115.67,188.24,501.22,Single-ply,SBD,M
Boys,82.1,3,Anthony Garcia,Big Spring,76.75,185.97,127.01,165.56,478.54,Single-ply,SBD,M
Boys,82.1,4,Michael Felton,Big Spring,81.65,174.63,120.2,161.03,455.86,Single-ply,SBD,M
Boys,82.1,5,Ivany Sanchez,Eldorado,81.56,154.22,104.33,176.9,435.45,Single-ply,SBD,M
Boys,82.1,6,Ignacio Jimenez,Lamesa,75.75,149.69,99.79,163.29,412.77,Single-ply,SBD,M
Boys,82.1,7,Tyler Hastings,Mertzon Irion County,79.83,156.49,83.91,170.1,410.5,Single-ply,SBD,M
Boys,82.1,8,Maurico Valdez,San Angelo Lake View,80.92,158.76,90.72,158.76,408.23,Single-ply,SBD,M
Boys,82.1,9,Luis Juarez,Midland,77.75,154.22,83.91,163.29,401.43,Single-ply,SBD,M
Boys,82.1,10,Andrew Mata,San Angelo Lake View,77.2,147.42,74.84,176.9,399.16,Single-ply,SBD,M
Boys,82.1,11,Landon Jones,Roscoe,75.66,142.88,86.18,163.29,392.36,Single-ply,SBD,M
Boys,82.1,12,William Varela,Snyder,77.66,154.22,92.99,145.15,392.36,Single-ply,SBD,M
Boys,82.1,13,Peyton Rodriquez,Coahoma,80.92,136.08,90.72,149.69,376.48,Single-ply,SBD,M
Boys,82.1,14,Lane Griffin,Eldorado,77.56,113.4,79.38,158.76,351.53,Single-ply,SBD,M
Boys,82.1,15,David Darling,Roscoe,77.84,124.74,92.99,133.81,351.53,Single-ply,SBD,M
Boys,82.1,16,Cheyenne Everett,Mertzon Irion County,78.02,131.54,63.5,156.49,351.53,Single-ply,SBD,M
Boys,82.1,17,Hector Reyes,Eldorado,79.38,120.2,70.31,161.03,351.53,Single-ply,SBD,M
Boys,82.1,18,Josh Whitley,Snyder,75.84,115.67,79.38,136.08,331.12,Single-ply,SBD,M
Boys,82.1,19,Brandon Dominguez,Ozona,81.19,127.01,70.31,124.74,322.05,Single-ply,SBD,M
Boys,82.1,20,Alejandro Méndez,Ozona,77.29,113.4,83.91,111.13,308.44,Single-ply,SBD,M
Boys,89.81,1,Abner Godoy,Midland,89.72,206.38,142.88,215.46,564.72,Single-ply,SBD,M
Boys,89.81,2,Conrad Duran,San Angelo Lake View,83.28,190.51,117.93,183.7,492.15,Single-ply,SBD,M
Boys,89.81,3,Aaron Allen #2,San Angelo Lake View,89.45,183.7,92.99,197.31,474,Single-ply,SBD,M
Boys,89.81,4,Austin Turner #4,San Angelo Lake View,88.09,158.76,122.47,176.9,458.13,Single-ply,SBD,M
Boys,89.81,5,Mikel Shaffer,San Angelo Lake View,89.72,188.24,88.45,179.17,455.86,Single-ply,SBD,M
Boys,89.81,6,Curtis McCourkel,San Angelo Grape Creek,84.28,163.29,92.99,167.83,424.11,Single-ply,SBD,M
Boys,89.81,7,Rogelio Valenzuela Jr,Midland,85.28,151.95,99.79,172.37,424.11,Single-ply,SBD,M
Boys,89.81,8,Julian Ramirez,Big Spring,85.28,158.76,92.99,151.95,403.7,Single-ply,SBD,M
Boys,89.81,9,Chris Mims,Forsan,84.19,149.69,77.11,167.83,394.63,Single-ply,SBD,M
Boys,89.81,10,Preston Laney,Midland,84.46,142.88,,,142.88,Single-ply,S,M
Boys,89.81,DQ,Dray Smith,Big Spring,87.54,,,,,Single-ply,S,M
Boys,99.79,1,John Chappa,San Angelo Central,96.43,251.74,151.95,247.21,650.91,Single-ply,SBD,M
Boys,99.79,2,Derrick Anderson,Big Spring,97.52,249.48,158.76,238.14,646.37,Single-ply,SBD,M
Boys,99.79,3,Austin Tucker,San Angelo Central,94.89,226.8,111.13,210.92,548.85,Single-ply,SBD,M
Boys,99.79,4,Marcus Agundis,San Angelo Lake View,95.25,208.65,108.86,208.65,526.17,Single-ply,SBD,M
Boys,99.79,5,Corey Hatcher,Roscoe,93.58,204.12,113.4,188.24,505.76,Single-ply,SBD,M
Boys,99.79,6,Tanner Carney,San Angelo Grape Creek,97.98,179.17,108.86,197.31,485.34,Single-ply,SBD,M
Boys,99.79,7,Joe Tony Duran,Lamesa,93.62,167.83,122.47,190.51,480.81,Single-ply,SBD,M
Boys,99.79,8,Roman Romero,Snyder,93.98,172.37,122.47,174.63,469.47,Single-ply,SBD,M
Boys,99.79,9,Danny Dillman,Midland,93.67,167.83,111.13,185.97,464.93,Single-ply,SBD,M
Boys,99.79,10,Isacc Dearing,Midland,99.7,140.61,99.79,195.04,435.45,Single-ply,SBD,M
Boys,99.79,11,Colton Acevedo,Big Spring,91.44,165.56,90.72,147.42,403.7,Single-ply,SBD,M
Boys,99.79,12,Michael Medina,Ozona,94.57,142.88,106.59,142.88,392.36,Single-ply,SBD,M
Boys,99.79,13,Austin Davidson,Mertzon Irion County,93.89,131.54,83.91,138.35,353.8,Single-ply,SBD,M
Boys,99.79,14,Anthony Avia,Ozona,96.25,,68.04,,68.04,Single-ply,B,M
Boys,109.77,1,Henry Hoang,Midland,103.87,238.14,147.42,233.6,619.15,Single-ply,SBD,M
Boys,109.77,2,Patrick Martinez,Slaton,109.13,204.12,124.74,231.33,560.19,Single-ply,SBD,M
Boys,109.77,3,Taylon Garrett,Anton,108.14,226.8,127.01,204.12,557.92,Single-ply,SBD,M
Boys,109.77,4,Robert Martinez,San Angelo Central,105.69,224.53,115.67,188.24,528.44,Single-ply,SBD,M
Boys,109.77,5,Ricky Ciuba,Mertzon Irion County,107.05,201.85,127.01,190.51,519.36,Single-ply,SBD,M
Boys,109.77,6,Christian Vargas,Midland,109.54,195.04,133.81,188.24,517.1,Single-ply,SBD,M
Boys,109.77,7,Jacob Wylie,Big Spring,109.77,199.58,120.2,163.29,483.08,Single-ply,SBD,M
Boys,109.77,8,Michael Childress,San Angelo Central,105.41,165.56,133.81,170.1,469.47,Single-ply,SBD,M
Boys,109.77,9,Dutton Watson,Midland,108.14,172.37,99.79,192.78,464.93,Single-ply,SBD,M
Boys,109.77,10,Zach Pfluger,San Angelo Central,103.24,188.24,113.4,151.95,453.59,Single-ply,SBD,M
Boys,109.77,11,Cj Casas,Snyder,109.77,170.1,102.06,181.44,453.59,Single-ply,SBD,M
Boys,109.77,12,Richard Keaton,Coahoma,109.77,188.24,81.65,176.9,446.79,Single-ply,SBD,M
Boys,109.77,13,Gunner Burklow,Lamesa,109.59,165.56,90.72,163.29,419.57,Single-ply,SBD,M
Boys,109.77,14,Emiliano Renteria,Lamesa,105.23,147.42,97.52,172.37,417.3,Single-ply,SBD,M
Boys,109.77,15,Max Macik,Coahoma,108.59,163.29,83.91,167.83,415.04,Single-ply,SBD,M
Boys,109.77,16,Daniel Ramirez,San Angelo Lake View,109.13,145.15,83.91,167.83,396.89,Single-ply,SBD,M
Boys,109.77,17,Brandon Sanders,Coahoma,102.78,154.22,83.91,154.22,392.36,Single-ply,SBD,M
Boys,109.77,18,John Paul Galvan,Eldorado,102.69,140.61,74.84,154.22,369.68,Single-ply,SBD,M
Boys,109.77,19,Jorge Flores,Lamesa,100.52,163.29,,,163.29,Single-ply,S,M
Boys,124.74,1,Justin Yanez,Big Spring,111.13,249.48,145.15,199.58,594.21,Single-ply,SBD,M
Boys,124.74,2,Gerald Williams,San Angelo Grape Creek,113.58,222.26,129.27,240.4,591.94,Single-ply,SBD,M
Boys,124.74,3,Camron McDaniel,Slaton,114.08,197.31,136.08,204.12,537.51,Single-ply,SBD,M
Boys,124.74,4,Zach Bentancourt,Slaton,112.58,195.04,142.88,190.51,528.44,Single-ply,SBD,M
Boys,124.74,5,Pernell Parker,Big Spring,116.57,192.78,131.54,183.7,508.02,Single-ply,SBD,M
Boys,124.74,6,Joey Maldonado,Anton,115.03,181.44,99.79,181.44,462.66,Single-ply,SBD,M
Boys,124.74,7,JR Martinez,Eldorado,113.04,176.9,95.25,181.44,453.59,Single-ply,SBD,M
Boys,124.74,8,Santos Rodriguez,Lamesa,112.4,158.76,117.93,172.37,449.06,Single-ply,SBD,M
Boys,124.74,9,Dustin Fontana,Coahoma,111.58,161.03,86.18,165.56,412.77,Single-ply,SBD,M
Boys,124.74,10,Chris Nunez,Big Spring,117.03,151.95,90.72,167.83,410.5,Single-ply,SBD,M
Boys,124.74,11,Chase Saunders,Roscoe,117.48,142.88,92.99,161.03,396.89,Single-ply,SBD,M
Boys,124.74,12,Joe Borrego,Ozona,112.31,113.4,86.18,145.15,344.73,Single-ply,SBD,M
Boys,124.74,13,Julio Granillo,Big Spring,110.22,154.22,,,154.22,Single-ply,S,M
Boys,124.74,14,Keaton Castillo,Midland,110.45,136.08,,,136.08,Single-ply,S,M
Boys,124.74,15,Turner Ingle,Midland,122.74,131.54,,,131.54,Single-ply,S,M
Boys,124.74,DQ,Chris Villa,Forsan,123.01,,,,,Single-ply,S,M
Boys,124.74+,1,Jonathan Molina,Big Spring,151.05,272.16,174.63,217.72,664.51,Single-ply,SBD,M
Boys,124.74+,2,Tim Meza,San Angelo Central,132.27,242.67,127.01,208.65,578.33,Single-ply,SBD,M
Boys,124.74+,3,Dylan Early,Snyder,133.63,215.46,136.08,226.8,578.33,Single-ply,SBD,M
Boys,124.74+,4,Devon Davis-Locke,Big Spring,128,172.37,158.76,176.9,508.02,Single-ply,SBD,M
Boys,124.74+,5,Malachi Nichols,Midland,131.18,158.76,142.88,199.58,501.22,Single-ply,SBD,M
Boys,124.74+,6,Sawyer Roberts,Big Spring,151.05,163.29,113.4,204.12,480.81,Single-ply,SBD,M
Boys,124.74+,7,Zach Byars,Midland,150.59,165.56,120.2,181.44,467.2,Single-ply,SBD,M
Boys,124.74+,8,Jackson Watkins #2,Big Spring,129.73,163.29,122.47,167.83,453.59,Single-ply,SBD,M
Boys,124.74+,9,Ben Wipff,Eldorado,136.26,170.1,92.99,181.44,444.52,Single-ply,SBD,M
