Division,WeightClassKg,Place,Name,Team,BodyweightKg,Best3SquatKg,Best3BenchKg,Best3DeadliftKg,TotalKg,Equipment,Event,Sex,BirthDate
Boys,51.71,1,Jonah Lopez,San Antonio Memorial,49.53,145.15,68.04,149.69,362.87,Single-ply,SBD,M,
Boys,51.71,2,Fabian Young,Blanco,51.39,111.13,65.77,149.69,326.59,Single-ply,SBD,M,
Boys,51.71,3,Anthony Garza,Natalia,50.98,117.93,61.23,127.01,306.17,Single-ply,SBD,M,
Boys,51.71,4,Aj Acosta,Comal Canyon Lake,48.26,92.99,47.63,104.33,244.94,Single-ply,SBD,M,
Boys,55.79,1,Carlos García,San Antonio Southwest Legacy,55.79,156.49,79.38,165.56,401.43,Single-ply,SBD,M,
Boys,55.79,2,Isaac Moya,Blanco,54.75,122.47,70.31,131.54,324.32,Single-ply,SBD,M,
Boys,55.79,3,Thomas Dorman,Comal Canyon Lake,55.66,129.27,58.97,136.08,324.32,Single-ply,SBD,M,
Boys,55.79,4,Gus Puente,Devine,52.8,115.67,61.23,136.08,312.98,Single-ply,SBD,M,
Boys,55.79,5,Ian Solano,San Antonio Holy Cross,54.75,97.52,52.16,113.4,263.08,Single-ply,SBD,M,
Boys,59.87,1,Aidan Flores,Seguin,58.24,163.29,90.72,174.63,428.64,Single-ply,SBD,M,
Boys,59.87,2,Donovan Hawkins,Natalia,57.88,165.56,79.38,167.83,412.77,Single-ply,SBD,M,
Boys,59.87,3,Nacious Jacquez,San Antonio Kennedy,58.56,124.74,72.57,140.61,337.93,Single-ply,SBD,M,
Boys,59.87,4,Joe Lopez,Blanco,56.97,117.93,54.43,122.47,294.84,Single-ply,SBD,M,
Boys,59.87,5,Aric Querner,Jourdanton,58.06,102.06,47.63,120.2,269.89,Single-ply,SBD,M,
Boys,59.87,DQ,Christian Salazar,San Antonio Kennedy,56.7,172.37,,,,Single-ply,SBD,M,
Boys,59.87,DQ,Seth Harrison,Pleasanton,59.15,,,,,Single-ply,SBD,M,
Boys,59.87,DQ,Paul Zamorano,San Antonio Kennedy,56.47,,,,,Single-ply,SBD,M,
Boys,67.13,1,Ernesto Rangel,San Antonio Southwest Legacy,66.22,238.14,149.69,244.94,632.76,Single-ply,SBD,M,
Boys,67.13,2,Christian Flores,Blanco,67.04,233.6,136.08,215.46,585.13,Single-ply,SBD,M,
Boys,67.13,3,Alex Villarreal,San Antonio Memorial,66.22,188.24,102.06,192.78,483.08,Single-ply,SBD,M,
Boys,67.13,4,Jessie John Guel,Pleasanton,66.72,185.97,108.86,183.7,478.54,Single-ply,SBD,M,
Boys,67.13,5,Zachery Martinez,Devine,67.04,161.03,106.59,167.83,435.45,Single-ply,SBD,M,
Boys,67.13,6,Rene Jimenez,San Antonio Memorial,62.37,154.22,90.72,176.9,421.84,Single-ply,SBD,M,
Boys,67.13,7,Franscisco Huerta,Yoakum,66.68,156.49,83.91,161.03,401.43,Single-ply,SBD,M,
Boys,67.13,8,Diego Flores,Marion,67.04,142.88,79.38,174.63,396.89,Single-ply,SBD,M,
Boys,67.13,9,Gabe Gonzales,Blanco,63.46,142.88,81.65,163.29,387.82,Single-ply,SBD,M,
Boys,67.13,10,Gianni Rios,Natalia,66.63,147.42,83.91,142.88,374.21,Single-ply,SBD,M,
Boys,67.13,11,Deven Hernandez,Seguin,66.5,136.08,79.38,156.49,371.95,Single-ply,SBD,M,
Boys,67.13,12,Wyatt Owens,Natalia,60.83,145.15,63.5,156.49,365.14,Single-ply,SBD,M,
Boys,67.13,13,Reid Simpson,Comal Canyon Lake,62.46,142.88,77.11,136.08,356.07,Single-ply,SBD,M,
Boys,67.13,14,Elijah Flores,Seguin,66.13,136.08,72.57,138.35,347,Single-ply,SBD,M,
Boys,67.13,15,Roberto Hernandez,Natalia,66.5,127.01,65.77,147.42,340.19,Single-ply,SBD,M,
Boys,67.13,16,Aidan Rios,Marion,64.14,129.27,68.04,133.81,331.12,Single-ply,SBD,M,
Boys,67.13,17,Kannon McWhinney,Marion,66,108.86,74.84,108.86,292.57,Single-ply,SBD,M,
Boys,67.13,DQ,Justin Rozier,Devine,66.54,,,,,Single-ply,SBD,M,
Boys,74.84,1,Buddy Santos,Devine,74.84,240.4,122.47,244.94,607.81,Single-ply,SBD,M,
Boys,74.84,2,Adrian Vasquez,Natalia,73.26,240.4,117.93,235.87,594.21,Single-ply,SBD,M,
Boys,74.84,3,Diego Zapata,Natalia,73.21,224.53,106.59,197.31,528.44,Single-ply,SBD,M,
Boys,74.84,4,Joel Salazar,Seguin,72.12,183.7,111.13,201.85,496.68,Single-ply,SBD,M,
Boys,74.84,5,Jon Loya,Pleasanton,72.89,183.7,131.54,179.17,494.42,Single-ply,SBD,M,
Boys,74.84,6,Elijah Banda,Natalia,72.98,199.58,111.13,181.44,492.15,Single-ply,SBD,M,
Boys,74.84,7,Aj Ayala,Pleasanton,72.3,197.31,97.52,185.97,480.81,Single-ply,SBD,M,
Boys,74.84,8,Max Chessher,Pleasanton,73.07,176.9,99.79,181.44,458.13,Single-ply,SBD,M,
Boys,74.84,9,Chris Saldana,Natalia,70.94,151.95,88.45,195.04,435.45,Single-ply,SBD,M,
Boys,74.84,10,Derek Wiatrek,Comal Canyon Lake,71.3,142.88,113.4,174.63,430.91,Single-ply,SBD,M,
Boys,74.84,11,Saul Valadez,Natalia,74.8,181.44,99.79,149.69,430.91,Single-ply,SBD,M,
Boys,74.84,12,Jacob Guajardo,Devine,73.8,163.29,102.06,161.03,426.38,Single-ply,SBD,M,
Boys,74.84,13,Mathew Luna,Seguin,74.3,142.88,97.52,172.37,412.77,Single-ply,SBD,M,
Boys,74.84,14,Danny Guillen,Devine,68.49,154.22,77.11,170.1,401.43,Single-ply,SBD,M,
Boys,74.84,15,Ryan Wolfshohl,Seguin,72.98,147.42,79.38,156.49,383.29,Single-ply,SBD,M,
Boys,74.84,16,Rains Finch,Blanco,69.67,142.88,77.11,142.88,362.87,Single-ply,SBD,M,
Boys,74.84,17,Freddie Santiago,Comal Canyon Lake,74.3,142.88,83.91,136.08,362.87,Single-ply,SBD,M,
Boys,74.84,18,Fernando Flores,San Antonio Southwest Legacy,69.58,124.74,74.84,149.69,349.27,Single-ply,SBD,M,
Boys,74.84,19,Aaron Arceneaux,San Antonio Southwest Legacy,73.53,115.67,70.31,151.95,337.93,Single-ply,SBD,M,
Boys,74.84,20,Chevy Standifer,Comal Canyon Lake,70.49,111.13,63.5,133.81,308.44,Single-ply,SBD,M,
Boys,74.84,21,Donovan Navarro,San Antonio Kennedy,68.86,95.25,65.77,142.88,303.91,Single-ply,SBD,M,
Boys,74.84,DQ,Martin Puente,San Antonio Kennedy,68.81,52.16,,,,Single-ply,SBD,M,
Boys,82.1,1,Jackson Cress,Blanco,77.43,188.24,122.47,190.51,501.22,Single-ply,SBD,M,
Boys,82.1,2,Fabian Ruiz,Natalia,80.2,199.58,92.99,208.65,501.22,Single-ply,SBD,M,
Boys,82.1,3,Devin Ornales,Devine,81.1,188.24,131.54,170.1,489.88,Single-ply,SBD,M,
Boys,82.1,4,Roberto Luna,Seguin,80.29,190.51,102.06,183.7,476.27,Single-ply,SBD,M,
Boys,82.1,5,Jonathan Mabs,Marion,79.47,176.9,104.33,190.51,471.74,Single-ply,SBD,M,
Boys,82.1,6,Issac Rios,Natalia,80.88,163.29,111.13,195.04,469.47,Single-ply,SBD,M,
Boys,82.1,7,Ralph Estala,Devine,78.79,151.95,90.72,170.1,412.77,Single-ply,SBD,M,
Boys,82.1,8,Grant Wagoner,Devine,75.34,145.15,97.52,156.49,399.16,Single-ply,SBD,M,
Boys,82.1,9,Wyatt Bates,Comal Canyon Lake,77.79,149.69,86.18,147.42,383.29,Single-ply,SBD,M,
Boys,82.1,10,Luke Johnson,Blanco,79.06,131.54,90.72,145.15,367.41,Single-ply,SBD,M,
Boys,82.1,11,Bryce Birdwell,Marion,82.01,131.54,74.84,158.76,365.14,Single-ply,SBD,M,
Boys,82.1,12,Andrew Miller #1,Comal Canyon Lake,75.21,133.81,68.04,154.22,356.07,Single-ply,SBD,M,
Boys,82.1,13,Donald Bigelow,Marion,80.78,131.54,72.57,149.69,353.8,Single-ply,SBD,M,
Boys,82.1,DQ,Alan Hernandez #8,San Antonio Memorial,78.7,,,,,Single-ply,SBD,M,
Boys,82.1,DQ,Everett Penalver,San Antonio Kennedy,79.65,151.95,74.84,,,Single-ply,SBD,M,
Boys,82.1,DQ,Joseph Hernadez,Devine,80.92,,,,,Single-ply,SBD,M,
Boys,89.81,1,Gilbert Salas,San Antonio Holy Cross,88.09,272.16,140.61,226.8,639.57,Single-ply,SBD,M,
Boys,89.81,2,Jeremiah Gomez,Natalia,88,206.38,117.93,204.12,528.44,Single-ply,SBD,M,
Boys,89.81,3,Salomon Vasquez,San Antonio Southwest Legacy,85.59,188.24,108.86,229.06,526.17,Single-ply,SBD,M,
Boys,89.81,4,Jacob Olivares,San Antonio Holy Cross,85.37,206.38,90.72,219.99,517.1,Single-ply,SBD,M,
Boys,89.81,5,Evan Priest,Devine,83.87,195.04,83.91,206.38,485.34,Single-ply,SBD,M,
Boys,89.81,6,Santi Herrera,Seguin,86.09,183.7,102.06,192.78,478.54,Single-ply,SBD,M,
Boys,89.81,7,Mauricio Pecina,Yoakum,87.68,172.37,108.86,183.7,464.93,Single-ply,SBD,M,
Boys,89.81,8,Romelo Portillo,San Antonio Holy Cross,83.37,158.76,102.06,167.83,428.64,Single-ply,SBD,M,
Boys,89.81,9,Joseph Rodriguez,San Antonio Kennedy,84.1,151.95,81.65,190.51,424.11,Single-ply,SBD,M,
Boys,89.81,10,Jared Sandoval,San Antonio Memorial,86.23,158.76,104.33,161.03,424.11,Single-ply,SBD,M,
Boys,89.81,11,Owen Schoenvogel,Marion,86.09,149.69,83.91,172.37,405.97,Single-ply,SBD,M,
Boys,89.81,12,Anthony Rodriguez,San Antonio Holy Cross,85.91,142.88,92.99,167.83,403.7,Single-ply,SBD,M,
Boys,89.81,13,Presley Rodriguez,San Antonio Southwest Legacy,83.32,138.35,79.38,170.1,387.82,Single-ply,SBD,M,
Boys,89.81,14,Andrew Rodriguez,San Antonio Southwest Legacy,84.82,136.08,72.57,170.1,378.75,Single-ply,SBD,M,
Boys,89.81,15,Coleton Martinez,Blanco,85.73,131.54,95.25,127.01,353.8,Single-ply,SBD,M,
Boys,89.81,16,Jayden Miller #3,Jourdanton,83.55,113.4,65.77,145.15,324.32,Single-ply,SBD,M,
Boys,99.79,1,Michael Martinez,Natalia,97.93,283.5,147.42,238.14,669.05,Single-ply,SBD,M,
Boys,99.79,2,Nathaniel Trinidad,San Antonio Holy Cross,98.66,204.12,127.01,226.8,557.92,Single-ply,SBD,M,
Boys,99.79,3,Corbin Flores,Marion,95.03,215.46,124.74,188.24,528.44,Single-ply,SBD,M,
Boys,99.79,4,Aaron Rivera,Devine,99.61,192.78,140.61,192.78,526.17,Single-ply,SBD,M,
Boys,99.79,5,Aharon de los Santos,Yoakum,93.94,197.31,106.59,172.37,476.27,Single-ply,SBD,M,
Boys,99.79,6,Kolten Gaskamp,Blanco,93.35,167.83,111.13,154.22,433.18,Single-ply,SBD,M,
Boys,99.79,7,Francisco Osoria,San Antonio Memorial,91.4,167.83,104.33,158.76,430.91,Single-ply,SBD,M,
Boys,99.79,8,Richard Chapa,Pleasanton,90.22,142.88,102.06,158.76,403.7,Single-ply,SBD,M,
Boys,99.79,9,Gabe Geving,Comal Canyon Lake,94.98,138.35,81.65,181.44,401.43,Single-ply,SBD,M,
Boys,99.79,10,Cole Tharp,Blanco,95.07,138.35,97.52,142.88,378.75,Single-ply,SBD,M,
Boys,99.79,11,Jonathon Rodriguez,San Antonio Kennedy,98.66,115.67,74.84,170.1,360.61,Single-ply,SBD,M,
Boys,99.79,12,Angel Romero #2,San Antonio Kennedy,91.58,115.67,74.84,133.81,324.32,Single-ply,SBD,M,
Boys,99.79,13,Skylar Germany,Seguin,94.8,113.4,68.04,142.88,324.32,Single-ply,SBD,M,
Boys,99.79,14,Nick Rodriquez,Jourdanton,90.13,111.13,61.23,142.88,315.25,Single-ply,SBD,M,
Boys,99.79,15,Joseph Calderon,Jourdanton,92.26,102.06,65.77,142.88,310.71,Single-ply,SBD,M,
Boys,99.79,16,Aries Mata,Jourdanton,98.02,106.59,92.99,111.13,310.71,Single-ply,SBD,M,
Boys,109.77,1,Uriel Arellano,Natalia,108.68,260.82,204.12,240.4,705.34,Single-ply,SBD,M,
Boys,109.77,2,Dustin Soto,Natalia,105.87,242.67,122.47,240.4,605.55,Single-ply,SBD,M,
Boys,109.77,3,Isaiah Sanchez,Natalia,105.64,242.67,113.4,238.14,594.21,Single-ply,SBD,M,
Boys,109.77,4,Michael Arteaga,San Antonio Southwest Legacy,107.41,222.26,158.76,204.12,585.13,Single-ply,SBD,M,
Boys,109.77,5,Gustavo Gomez,Natalia,101.15,258.55,122.47,176.9,557.92,Single-ply,SBD,M,
Boys,109.77,6,Tyler Atenciio,Comal Canyon Lake,101.51,204.12,102.06,192.78,498.95,Single-ply,SBD,M,
Boys,109.77,7,Ian Rodriguez,San Antonio Southwest Legacy,108.27,183.7,111.13,149.69,444.52,Single-ply,SBD,M,
Boys,109.77,8,Quaid Campbell,Pleasanton,102.47,161.03,115.67,151.95,428.64,Single-ply,SBD,M,
Boys,109.77,9,Juan Garcia,Seguin,100.7,147.42,92.99,183.7,424.11,Single-ply,SBD,M,
Boys,109.77,10,Freddy Martinez,Jourdanton,107.37,142.88,92.99,188.24,424.11,Single-ply,SBD,M,
Boys,109.77,11,Corbin Perankovich,Marion,100.61,147.42,86.18,165.56,399.16,Single-ply,SBD,M,
Boys,109.77,12,Logan Camarillo,Devine,104.92,142.88,104.33,136.08,383.29,Single-ply,SBD,M,
Boys,109.77,13,Mathew Mariscal,Yoakum,103.28,154.22,86.18,138.35,378.75,Single-ply,SBD,M,
Boys,109.77,DQ,Reymundo Arellano,San Antonio Memorial,109.41,,,,,Single-ply,SBD,M,
Boys,124.74,1,Paul Billalobos,Natalia,122.52,294.84,163.29,256.28,714.41,Single-ply,SBD,M,
Boys,124.74,2,Fernando Martinez #4,San Antonio Southwest Legacy,123.51,240.4,124.74,210.92,576.06,Single-ply,SBD,M,
Boys,124.74,3,Joshua Pereida,San Antonio Southwest Legacy,112.13,204.12,158.76,195.04,557.92,Single-ply,SBD,M,
Boys,124.74,4,Diego Hernandez,Natalia,114.8,208.65,120.2,226.8,555.65,Single-ply,SBD,M,
Boys,124.74,5,Daniel Jaimes,Blanco,115.35,199.58,120.2,197.31,517.1,Single-ply,SBD,M,
Boys,124.74,6,Michael Cazaras,Jourdanton,116.94,192.78,102.06,206.38,501.22,Single-ply,SBD,M,
Boys,124.74,7,Aubrey Cummings,Natalia,122.15,188.24,147.42,154.22,489.88,Single-ply,SBD,M,
Boys,124.74,8,Jordan Guerra,San Antonio Holy Cross,122.56,185.97,88.45,201.85,476.27,Single-ply,SBD,M,
Boys,124.74,9,Manuel Reyna,San Antonio Kennedy,113.85,181.44,90.72,181.44,453.59,Single-ply,SBD,M,
Boys,124.74,10,Jacob Delaney,Devine,119.66,151.95,111.13,149.69,412.77,Single-ply,SBD,M,
Boys,124.74,11,Rudy Rodriguez,Devine,111.31,140.61,92.99,167.83,401.43,Single-ply,SBD,M,
Boys,124.74,12,Gunner Moryl,Seguin,109.95,138.35,102.06,151.95,392.36,Single-ply,SBD,M,
Boys,124.74,13,Brandon Walker,Jourdanton,123.92,70.31,70.31,102.06,242.67,Single-ply,SBD,M,
Boys,124.74,14,Matthew Romero,San Antonio Kennedy,121.38,86.18,40.82,106.59,233.6,Single-ply,SBD,M,
Boys,124.74,DQ,Josh Garry,San Antonio Kennedy,117.89,,,,,Single-ply,SBD,M,
Boys,124.74,DQ,Nathan Palacio,San Antonio Memorial,116.03,281.23,154.22,,,Single-ply,SBD,M,
Boys,124.74,DQ,Nathan Cavazos,San Antonio Holy Cross,120.88,,,,,Single-ply,SBD,M,
Boys,124.74,DQ,Joel Hernandez #2,Devine,114.53,,,,,Single-ply,SBD,M,
Boys,124.74+,1,Jesus Borroel,San Antonio Memorial,142.38,281.23,136.08,260.82,678.12,Single-ply,SBD,M,
Boys,124.74+,2,Diego Anguiano,Pleasanton,135.94,244.94,147.42,213.19,605.55,Single-ply,SBD,M,
Boys,124.74+,3,Bode Walters,Marion,137.53,226.8,158.76,199.58,585.13,Single-ply,SBD,M,
Boys,124.74+,4,Darrin Lafferty,Devine,137.35,197.31,124.74,206.38,528.44,Single-ply,SBD,M,
Boys,124.74+,5,Marco DeLeon,Jourdanton,133.58,204.12,115.67,206.38,526.17,Single-ply,SBD,M,
Boys,124.74+,6,Marcos Coronado,San Antonio Holy Cross,174.72,183.7,106.59,235.87,526.17,Single-ply,SBD,M,
Boys,124.74+,7,Mason Groff,Blanco,127.6,183.7,111.13,183.7,478.54,Single-ply,SBD,M,
Boys,124.74+,8,James Soldwisch,Blanco,129.68,158.76,145.15,167.83,471.74,Single-ply,SBD,M,
Boys,124.74+,9,Tyler Martinez #3,Jourdanton,125.46,122.47,79.38,158.76,360.61,Single-ply,SBD,M,
Boys,124.74+,DQ,Manuel Belmarez,San Antonio Memorial,125.01,204.12,122.47,,,Single-ply,SBD,M,
