Name,Division,BodyweightKg,WeightClassKg,Squat1Kg,Squat2Kg,Squat3Kg,Best3SquatKg,Bench1Kg,Bench2Kg,Bench3Kg,Best3BenchKg,Deadlift1Kg,Deadlift2Kg,Deadlift3Kg,Best3DeadliftKg,TotalKg,Event,Place,Equipment,Sex,State
Gina Zimbalatti,FR-O,49.16,52,65,-72.5,72.5,72.5,62.5,65,-70,65,105,115,-120,115,252.5,SBD,1,Raw,F,SW
Jessica Green #1,FR-O,50.06,52,77.5,82.5,-90,82.5,37.5,42.5,-47.5,42.5,100,-110,115,115,240,SBD,2,Raw,F,SW
Rebecca Ferris,FR-M1,51.75,52,72.5,-77.5,77.5,77.5,37.5,-40,40,40,90,95,100,100,217.5,SBD,1,Raw,F,SW
Maddi Dwyer,FR-O,55.93,57,65,70,-72.5,70,32.5,-35,-37.5,32.5,95,100,107.5,107.5,210,SBD,1,Raw,F,SW
Lily Robert,FR-O,53.95,57,55,-60,-60,55,37.5,-42.5,-42.5,37.5,90,97.5,102.5,102.5,195,SBD,2,Raw,F,SW
Amy Cobb,FR-O,61,63,77.5,-85,90,90,47.5,52.5,-55,52.5,110,-120,-125,110,252.5,SBD,1,Raw,F,SW
Fenella Powell,FR-O,58.49,63,90,-97.5,-100,90,40,45,-47.5,45,100,107.5,112.5,112.5,247.5,SBD,2,Raw,F,SW
Sam Bramley,FR-M1,61.08,63,102.5,110,115,115,52.5,-57.5,57.5,57.5,110,120,125,125,297.5,SBD,1,Raw,F,SW
Isabel Hart,FR-Sj,62.99,63,65,72.5,80,80,35,40,-42.5,40,90,100,-102.5,100,220,SBD,1,Raw,F,SW
Poppy Joshi,FR-Jr,71.95,72,100,110,115,115,50,57.5,65,65,130,140,150,150,330,SBD,1,Raw,F,SW
Emma Kennedy,FR-O,66.21,72,112.5,117.5,122.5,122.5,60,65,-67.5,65,155,162.5,170,170,357.5,SBD,1,Raw,F,SW
Ria Mugglestone,FR-O,69.94,72,-105,-105,105,105,75,80,-82.5,80,130,145,165,165,350,SBD,2,Raw,F,SW
Christie Civetta,FR-O,83.75,84,135,142.5,150,150,80,87.5,-92.5,87.5,155,162.5,170,170,407.5,SBD,1,Raw,F,SW
Bethan Ashton,FR-O,82.13,84,122.5,125,127.5,127.5,60,65,70,70,140,150,155,155,352.5,SBD,2,Raw,F,SW
Sarah Watkins,FR-O,76.99,84,120,125,127.5,127.5,50,52.5,55,55,140,145,147.5,147.5,330,SBD,3,Raw,F,SW
Saffron Newell-Price,FR-O,75.37,84,100,105,110,110,42.5,45,-50,45,115,122.5,130,130,285,SBD,4,Raw,F,SW
Rebekah Coveney,FR-O,81.12,84,,,,,55,60,62.5,62.5,,,,,62.5,B,1,Raw,F,SW
Imogen Fenner,FR-Jr,93.19,84+,115,125,130,130,62.5,67.5,70,70,117.5,127.5,132.5,132.5,332.5,SBD,1,Raw,F,SW
Sarah Elliot,FR-O,94.22,84+,95,107.5,-112.5,107.5,55,-60,60,60,120,137.5,145,145,312.5,SBD,1,Raw,F,SW
Lucy Brown,FR-M1,94.64,84+,62.5,65,70,70,42.5,47.5,-50,47.5,97.5,110,117.5,117.5,235,SBD,1,Raw,F,SW
Joe Nordhoff,MR-Sj,62.38,66,127.5,135,-140,135,70,75,-77.5,75,140,145,-150,145,355,SBD,1,Raw,M,SW
William George,MR-O,65.67,66,160,170,-180,170,100,107.5,-112.5,107.5,220,-230,,220,497.5,SBD,1,Raw,M,SW
John Devlin,MR-O,65.45,66,147.5,152.5,157.5,157.5,100,105,110,110,192.5,200,210,210,477.5,SBD,2,Raw,M,SW
George Sandoe,MR-Jr,70.59,74,170,180,190,190,100,105,110,110,185,192.5,205,205,505,SBD,1,Raw,M,SW
Kieran Drysdale,MR-Jr,72.16,74,145,-155,165,165,-92.5,100,-105,100,185,-200,200,200,465,SBD,2,Raw,M,SW
James Wilson #3,MR-O,73.83,74,-200,-205,205,205,137.5,145,-152.5,145,210,222.5,230,230,580,SBD,1,Raw,M,SW
Jed Rawlings,MR-O,68.79,74,175,-182.5,182.5,182.5,110,120,127.5,127.5,210,220,232.5,232.5,542.5,SBD,2,Raw,M,SW
Archie Freeman,MR-Jr,82.79,83,200,210,-217.5,210,127.5,135,140,140,-262.5,272.5,-280,272.5,622.5,SBD,1,Raw,M,SW
Alex Dobbins,MR-Jr,77.7,83,175,185,190,190,100,105,110,110,225,240,-242.5,240,540,SBD,2,Raw,M,SW
Joseph Watts #1,MR-Jr,81.69,83,-162.5,162.5,-170,162.5,-130,135,-140,135,165,180,-202.5,180,477.5,SBD,3,Raw,M,SW
Benjamin Laing,MR-Jr,77.25,83,155,162.5,167.5,167.5,87.5,92.5,95,95,187.5,200,-210,200,462.5,SBD,4,Raw,M,SW
Dawid Dudek,MR-Jr,81.5,83,130,135,140,140,87.5,-92.5,-95,87.5,160,,,160,387.5,SBD,5,Raw,M,SW
Jacob Curtis,MR-Sj,88.71,93,105,-112.5,-117.5,105,-82.5,85,-87.5,85,160,165,170,170,360,SBD,1,Raw,M,SW
Sam Kenyon,MR-Jr,92.33,93,207.5,-220,220,220,137.5,145,-150,145,225,240,-250,240,605,SBD,1,Raw,M,SW
Robert Dyer,MR-O,88.9,93,-172.5,177.5,182.5,182.5,-117.5,125,132.5,132.5,195,205,-207.5,205,520,SBD,1,Raw,M,SW
Tom Oldham,MR-O,92.2,93,-165,165,180,180,115,122.5,-127.5,122.5,195,205,-217.5,205,507.5,SBD,2,Raw,M,SW
Elvis Browne,MR-M1,90.43,93,190,210,215,215,125,135,145,145,260,280,-300,280,640,SBD,1,Raw,M,SW
Oskar Bishop,MR-Sj,95.47,105,155,167.5,-182.5,167.5,107.5,117.5,120,120,190,207.5,220,220,507.5,SBD,1,Raw,M,SW
Wilf Bond,MR-Sj,98.26,105,-147.5,-147.5,-147.5,,82.5,-87.5,,82.5,165,,,165,,SBD,DQ,Raw,M,SW
Jack Carter-Taylor,MR-Jr,102.49,105,-210,215,227.5,227.5,130,140,-150,140,220,237.5,-250,237.5,605,SBD,1,Raw,M,SW
Joseph Meager,MR-Jr,97.42,105,165,177.5,187.5,187.5,122.5,132.5,140,140,235,255,262.5,262.5,590,SBD,2,Raw,M,SW
Archie King,MR-O,104.8,105,195,-207.5,212.5,212.5,127.5,135,-140,135,217.5,227.5,232.5,232.5,580,SBD,1,Raw,M,SW
Matt Knight #4,MR-M1,104.19,105,-207.5,222.5,-232.5,222.5,162.5,175,-180,175,255,275,285,285,682.5,SBD,1,Raw,M,SW
Nicolas Podevijn,MR-Jr,117.85,120,215,232.5,240,240,147.5,157.5,160,160,230,245,250,250,650,SBD,1,Raw,M,SW
