﻿BDFPF - DFPFNL
NATIONAAL KAMPIOENSCHAP  BENCH - DEADLIFT UNEQUIPPED
Weightclass                                            Lastname                 Firstname       Ge Country Age             AgeWeight   1        2        3        4
                                                       Bench
1                                                      - 63 KG Logier           Reinilde    F   BEL              27   SR   61,00       65       70       75,5             63,64
1                                                      67,5 KG Lormans          Matthias    M   BEL              18   T3   61,60       90       95       -97,5            75,19
1                                                      67,5 KG Dierckx          Liam        M   BEL              23   JR   66,40       90       97,5     -105             71,83
1                                                      67,5 KG Goossens         Chesney     M   BEL              26   SR   63,00       120      -127,5   127,5    130     98,70
1                                                      67,5 KG De Ridder        Pascal      M   BEL              51   M3   61,70       90       95       -97,5            75,07
1                                                      75 KG Dhoop              Falco       M   BEL              17   T2   74,00       85       90       -92,5            60,43
1                                                      75 KG Van Laere          Tjorven     M   BEL              19   T3   73,00       85       -90      -90              57,71
1                                                      75 KG Waroux             Dirk        M   BEL              38   SR   73,80       120      125      -130             84,13
2                                                      75 KG Vanhaverbeke       Kenny       M   BEL              34   SR   69,60       100      107,5    -115             75,96
1                                                      75 KG Neyt               Bart        M   BEL              50   M3   73,40       112,5    117,5    120      -121    81,12
1                                                      75 KG Van de Haeghen     Christian   M   BEL              57   M4   73,20       -107,5   110      112,5    -117    76,21
1                                                      75 KG Vandoorne          Billy       M   BEL              80   M9   75,00       80       85       87,5     -90,5   58,14
1                                                      82,5 KG Hamidian         Human       M   BEL              17   T2   75,70       90       100      105              69,27
1                                                      82,5 KG Abdel Almaseeh   Abdullah    M   BEL              19   T3   81,60       95       100      -105             62,41
1                                                      90 KG Devaere            Achiel      M   BEL              70   M7   89,60       105      110      -115             64,56
1                                                      90 KG Theyssens          Martin      M   BEL              78   M8   86,90       -60      65       -70              38,88
1                                                      100 KG Dedeurwaerder     Kenny       M   BEL              38   SR   91,90       120      135      -145             78,06
2                                                      100 KG Dequidt           Ben         M   BEL              24   SR   92,00       130      -137,5   -137,5           75,13
3                                                      100 KG De Mey            Jonathan    M   BEL              32   SR   95,00       -125     125      -135             70,98
1                                                      100 KG Secke             Jacky       M   BEL              67   M6   98,60       135      145      -150             80,84
1                                                      110 KG Catteuw           Luc         M   BEL              60   M5   101,00      135      140      146,5    -148    80,00
1                                                      125 KG Dejans            Bjorn       M   BEL              33   SR   115,60      -125     130      135              71,67
2                                                      125 KG Diercks           Steve       M   BEL              34   SR   113,60      110      115      -120             61,26
1                                                      75 KG De Graaf           Jelle       M   NED              22   JR   71,80       105      110      -115             75,70
1                                                      75 KG Taranghi           Sepher      M   NED              28   SR   69,70       -75      75       85               59,98
1                                                      100 KG Hamers            Maikel      M   NED              19   T3   93,60       102,5    107,5    110      112,5   62,95
1                                                      125 KG Harms             Orson       M   NED              43   M1   120,20      155      -160,5   160,5    -161    84,29
1                                                      + 145 KG Hamers          René        M   NED              49   M2   161,70      182,5    190      -192,5           91,56
1                                                      90 KG Pütz               David       M   GER              42   M1   88,60       115      120      -122,5           70,92
1                                                      145 KG Tetzlaff          Martin      M   GER              47   M2   126,60      175      185      -193             96,03
Doping test                                                                                                           ER
NR                                                                                                                    WR
20 Okt 2018

BDFPF - DFPFNL
NATIONAAL KAMPIOENSCHAP  BENCH - DEADLIFT UNEQUIPPED
Deadlift
                                                       Weightclass        Lastname                  Firstname           Ge Country Age               AgeWeight   1        2       3       4
1                                                                         - 70 KG Langaskens        Mia         F       BEL              56    M4    67,30       95       100     102,5          80,02
1                                                      67,5 KG Lormans                              Matthias    M       BEL              18    T3    61,60       130      140     -150           110,81
1                                                      67,5 KG Dierckx                              Liam        M       BEL              23    JR    66,40       180      -195    -195           132,61
2                                                                         67,5 KG Van Den Broecke   Daniel      M       BEL              22    JR    66,80       147,5    155     160            117,23
1                                                      67,5 KG Goossens                             Chesney     M       BEL              26    SR    63,00       140      -150    -150           108,37
1                                                                         75 KG Van Laere           Tjorven     M       BEL              19    T3    73,00       130      145     172,5          117,11
1                                                                         75 KG Vanhaverbeke        Kenny       M       BEL              34    SR    69,60       157,5    167,5   180            127,19
2                                                      75 KG Waroux                                 Dirk        M       BEL              38    SR    73,80       150      160     -170           107,68
1                                                      82,5 KG Hamidian                             Human       M       BEL              17    T2    75,70       180      190     195     200    128,64
1                                                                         82,5 KG Abdel Almaseeh    Abdullah    M       BEL              19    T3    81,60       -180     180     -190           112,34
1                                                      82,5 KG Declercq                             Bram        M       BEL              23    JR    79,70       210      220     -230           139,63
1                                                                         90 KG Theyssens           Martin      M       BEL              78    M8    86,90       100      -110    -110           59,82
1                                                                         100 KG Dedeurwaerder      Kenny       M       BEL              38    SR    91,90       200      220     235            135,88
2                                                      100 KG Dequidt                               Ben         M       BEL              24    SR    92,00       220      -230    0              127,14
3                                                      100 KG De Mey                                Jonathan    M       BEL              32    SR    95,00       180      -190    -190           102,20
1                                                      100 KG Verbeke                               Beny        M       BEL              53    M3    92,30       260      -275    275     -288   158,62
1                                                      125 KG Dejans                                Bjorn       M       BEL              33    SR    115,60      230      240     250            132,73
2                                                      125 KG Diercks                               Steve       M       BEL              34    SR    113,60      210                             0,00
1                                                      90 KG Pütz         David                     M    GER    42 M1   88,60            170   185   190         112,29
1                                                      145 KG Tetzlaff    Martin                    M    GER    47 M2   126,60           180   200   -220        103,82
Doping test                                            ER
NR                                                     WR
20 Okt 2018
