Division,WeightClassKg,Place,Name,Team,BodyweightKg,Best3SquatKg,Best3BenchKg,Best3DeadliftKg,TotalKg,Equipment,Event,Sex
Boys,51.71,1,Nathan Besch,Weimar,50.76,106.59,63.5,102.06,272.16,Single-ply,SBD,M
Boys,51.71,DQ,Adam Morton,Louise,50.76,,,,,Single-ply,SBD,M
Boys,55.79,1,Troy Ogg,La Grange,55.38,158.76,79.38,145.15,383.29,Single-ply,SBD,M
Boys,55.79,2,Jason Samaniego,Altair Rice,55.79,136.08,79.38,142.88,358.34,Single-ply,SBD,M
Boys,55.79,3,Alfredo Moreno,Weimar,54.7,124.74,74.84,145.15,344.73,Single-ply,SBD,M
Boys,55.79,4,Brandon Teague,Altair Rice,54.39,136.08,70.31,133.81,340.19,Single-ply,SBD,M
Boys,55.79,5,Rolando Moreno,Weimar,55.07,120.2,74.84,140.61,335.66,Single-ply,SBD,M
Boys,55.79,6,Brandon Brune,El Maton Tidehaven,54.7,122.47,63.5,106.59,292.57,Single-ply,SBD,M
Boys,55.79,NS,Hunter Shoppa,East Bernard,,,,,,Single-ply,SBD,M
Boys,55.79,NS,Leighton Galvan,El Maton Tidehaven,,,,,,Single-ply,SBD,M
Boys,59.87,1,Steffan Brown,Columbus,58.83,176.9,104.33,192.78,474,Single-ply,SBD,M
Boys,59.87,2,Mason Reyes,Altair Rice,59.42,147.42,83.91,167.83,399.16,Single-ply,SBD,M
Boys,67.13,3,Garrett Cain,Columbus,59.96,147.42,86.18,163.29,396.89,Single-ply,SBD,M
Boys,59.87,4,Jorge Rosales,Weimar,59.69,133.81,90.72,170.1,394.63,Single-ply,SBD,M
Boys,59.87,NS,Donnie Lee,Hallettsville,,,,,,Single-ply,SBD,M
Boys,59.87,NS,Cole Brown,Giddings,,,,,,Single-ply,SBD,M
Boys,59.87,NS,Chris Dickson,East Bernard,,,,,,Single-ply,SBD,M
Boys,67.13,1,Daniel Iselt,Giddings,66.09,185.97,115.67,176.9,478.54,Single-ply,SBD,M
Boys,67.13,2,Drew Haas,Hallettsville,61.78,188.24,90.72,165.56,444.52,Single-ply,SBD,M
Boys,67.13,3,Todd Nicholas,Altair Rice,62.51,161.03,88.45,174.63,424.11,Single-ply,SBD,M
Boys,67.13,4,Colton Matus,Columbus,65.82,163.29,90.72,161.03,415.04,Single-ply,SBD,M
Boys,67.13,5,Tyler Kurtz,East Bernard,65.59,138.35,83.91,163.29,385.55,Single-ply,SBD,M
Boys,67.13,6,John Marek,Bellville,63.5,147.42,83.91,145.15,376.48,Single-ply,SBD,M
Boys,67.13,7,Montan Ollie,Schulenburg,65.82,142.88,70.31,158.76,371.95,Single-ply,SBD,M
Boys,67.13,8,Mickey Ollie,Schulenburg,62.82,142.88,63.5,147.42,353.8,Single-ply,SBD,M
Boys,67.13,9,Jaric Crider,Bellville,64.41,124.74,72.57,122.47,319.78,Single-ply,SBD,M
Boys,67.13,10,Avery Srebalus,East Bernard,61.1,83.91,52.16,92.99,229.06,Single-ply,SBD,M
Boys,67.13,DQ,Dawson Dittrich,Schulenburg,67.04,,,,,Single-ply,SBD,M
Boys,74.84,DQ,Clint Mician,Schulenburg,67.18,,,,,Single-ply,SBD,M
Boys,74.84,1,Collen Dungen,Columbus,72.03,188.24,113.4,181.44,483.08,Single-ply,SBD,M
Boys,74.84,2,Saul Rosales,Weimar,73.44,158.76,102.06,163.29,424.11,Single-ply,SBD,M
Boys,74.84,3,Michael Mason,Weimar,70.08,145.15,97.52,174.63,417.3,Single-ply,SBD,M
Boys,74.84,4,Bralon Hutchison,La Grange,73.57,156.49,92.99,158.76,408.23,Single-ply,SBD,M
Boys,74.84,5,Dane Hackfield,Columbus,68.36,149.69,99.79,151.95,401.43,Single-ply,SBD,M
Boys,74.84,6,Dakota Baker,La Grange,71.71,156.49,74.84,163.29,394.63,Single-ply,SBD,M
Boys,74.84,7,Logan O'Connor,Columbus,72.62,142.88,102.06,142.88,387.82,Single-ply,SBD,M
Boys,74.84,8,Francesco Giannetti,East Bernard,72.62,131.54,86.18,142.88,360.61,Single-ply,SBD,M
Boys,74.84,NS,Cedric Perkins,East Bernard,,,,,,Single-ply,SBD,M
Boys,74.84,NS,Jesse Morales,Hallettsville,,,,,,Single-ply,SBD,M
Boys,74.84,NS,Dustin Adams,Bellville,,,,,,Single-ply,SBD,M
Boys,74.84,NS,Breh Garner,Hallettsville,,,,,,Single-ply,SBD,M
Boys,82.1,DQ,Brandon Litzav,El Maton Tidehaven,74.98,,,,,Single-ply,SBD,M
Boys,82.1,1,Thomas Ewing,Giddings,81.92,235.87,117.93,235.87,589.67,Single-ply,SBD,M
Boys,82.1,2,Dalton Manning,Schulenburg,75.66,210.92,140.61,208.65,560.19,Single-ply,SBD,M
Boys,82.1,3,Josue Reynosa,Altair Rice,79.92,204.12,117.93,208.65,530.7,Single-ply,SBD,M
Boys,82.1,4,Andrew Ray,Columbus,80.42,199.58,108.86,217.72,526.17,Single-ply,SBD,M
Boys,82.1,5,Sotero Lara,Giddings,79.2,208.65,124.74,183.7,517.1,Single-ply,SBD,M
Boys,82.1,6,Matthew Torres,La Grange,79.83,188.24,113.4,188.24,489.88,Single-ply,SBD,M
Boys,89.81,7,Jordan Garner,Altair Rice,82.33,149.69,122.47,179.17,451.32,Single-ply,SBD,M
Boys,82.1,8,Garrison Mueller,La Grange,78.29,156.49,92.99,183.7,433.18,Single-ply,SBD,M
Boys,82.1,9,Justin Reeves,Hallettsville,77.2,154.22,108.86,158.76,421.84,Single-ply,SBD,M
Boys,82.1,10,Matthew Quintero,Columbus,80.2,151.95,102.06,158.76,412.77,Single-ply,SBD,M
Boys,82.1,11,Andrew Kubena,East Bernard,78.83,142.88,90.72,151.95,385.55,Single-ply,SBD,M
Boys,89.81,12,Ty Talowy,East Bernard,82.28,147.42,79.38,151.95,378.75,Single-ply,SBD,M
Boys,82.1,13,Lex Leibfried,Bellville,81.65,102.06,79.38,120.2,301.64,Single-ply,SBD,M
Boys,82.1,NS,Tyler Skelton,Hallettsville,,,,,,Single-ply,SBD,M
Boys,82.1,NS,Ty Winkler,Schulenburg,,,,,,Single-ply,SBD,M
Boys,82.1,NS,Cody Livingston,Schulenburg,,,70.31,,,Single-ply,SBD,M
Boys,89.81,1,Joseph Mendoza,Giddings,84.14,235.87,127.01,222.26,585.13,Single-ply,SBD,M
Boys,89.81,2,Deondre Acosta,Giddings,83.32,204.12,129.27,204.12,537.51,Single-ply,SBD,M
Boys,89.81,3,Kaden Hardt,Hallettsville,87.23,197.31,129.27,197.31,523.9,Single-ply,SBD,M
Boys,89.81,4,Reese Weishum,Bellville,86.18,179.17,120.2,208.65,508.02,Single-ply,SBD,M
Boys,89.81,5,Abraham Juarez,Altair Rice,89.49,199.58,113.4,181.44,494.42,Single-ply,SBD,M
Boys,89.81,6,Rodney Flimore,La Grange,83.64,170.1,102.06,181.44,453.59,Single-ply,SBD,M
Boys,89.81,7,Glen Miles,Bellville,84.37,172.37,106.59,174.63,453.59,Single-ply,SBD,M
Boys,89.81,8,Kyle Morebo,El Maton Tidehaven,88.68,145.15,90.72,172.37,408.23,Single-ply,SBD,M
Boys,89.81,9,Josh Venglaus,Columbus,86.64,131.54,81.65,133.81,347,Single-ply,SBD,M
Boys,89.81,10,Drayton Chesser,Weimar,82.69,124.74,79.38,138.35,342.46,Single-ply,SBD,M
Boys,89.81,11,Colton Leopold,Altair Rice,82.55,86.18,43.09,102.06,231.33,Single-ply,SBD,M
Boys,89.81,NS,Nathan Tovar,East Bernard,,,,,,Single-ply,SBD,M
Boys,89.81,NS,Colton Miori,La Grange,,,,,,Single-ply,SBD,M
Boys,99.79,DQ,Hunter Woytek,Columbus,89.95,158.76,86.18,,,Single-ply,SBD,M
Boys,99.79,1,Martin Ramirez,Altair Rice,99.74,204.12,140.61,210.92,555.65,Single-ply,SBD,M
Boys,99.79,2,Eddie Lopez,Hallettsville,94.8,204.12,117.93,188.24,510.29,Single-ply,SBD,M
Boys,99.79,3,Shawn Goldstein,Giddings,91.31,188.24,138.35,172.37,498.95,Single-ply,SBD,M
Boys,99.79,4,Jordan Hayes,Columbus,98.93,176.9,117.93,195.04,489.88,Single-ply,SBD,M
Boys,99.79,5,Jorge Franco,Louise,98.38,199.58,102.06,183.7,485.34,Single-ply,SBD,M
Boys,99.79,6,Dylan Ferguson,Altair Rice,97.7,176.9,129.27,161.03,467.2,Single-ply,SBD,M
Boys,99.79,7,Sam Sanchez #1,Columbus,91.99,190.51,95.25,179.17,464.93,Single-ply,SBD,M
Boys,99.79,8,Clayton Mays,Schulenburg,96.57,154.22,97.52,170.1,421.84,Single-ply,SBD,M
Boys,99.79,9,John Tillman,Schulenburg,98.43,154.22,104.33,147.42,405.97,Single-ply,SBD,M
Boys,99.79,10,Kohn Pickett,Columbus,90.22,156.49,97.52,138.35,392.36,Single-ply,SBD,M
Boys,99.79,11,Justen Williams,Bellville,91.63,136.08,74.84,136.08,347,Single-ply,SBD,M
Boys,99.79,12,Clay Frikins,Weimar,93.89,142.88,83.91,108.86,335.66,Single-ply,SBD,M
Boys,99.79,DQ,Kellen Carter,Giddings,90.17,183.7,,,,Single-ply,SBD,M
Boys,109.77,1,Demarcus Tillman,Altair Rice,100.65,235.87,142.88,208.65,587.4,Single-ply,SBD,M
Boys,109.77,2,Jordan Darr,East Bernard,101.38,204.12,124.74,217.72,546.58,Single-ply,SBD,M
Boys,109.77,3,Dillon Steffek,Hallettsville,106.96,213.19,124.74,197.31,535.24,Single-ply,SBD,M
Boys,109.77,4,Walker Ellison,La Grange,107.27,192.78,104.33,195.04,492.15,Single-ply,SBD,M
Boys,109.77,5,Noe Rosales,Weimar,100.15,183.7,122.47,183.7,489.88,Single-ply,SBD,M
Boys,109.77,6,Cody Schindler,La Grange,107.77,197.31,111.13,179.17,487.61,Single-ply,SBD,M
Boys,109.77,7,Kane Meartz,Columbus,103.37,181.44,122.47,181.44,485.34,Single-ply,SBD,M
Boys,109.77,8,Austen Williams,Bellville,107.95,183.7,124.74,174.63,483.08,Single-ply,SBD,M
Boys,109.77,9,Carlos Martinez #16,Louise,101.24,204.12,113.4,156.49,474,Single-ply,SBD,M
Boys,109.77,10,Ryan Janacek,Weimar,101.06,133.81,74.84,127.01,335.66,Single-ply,SBD,M
Boys,109.77,11,Bradley Berry,East Bernard,100.24,106.59,74.84,136.08,317.51,Single-ply,SBD,M
Boys,109.77,DQ,Danny Clixsto,El Maton Tidehaven,107.46,226.8,,,,Single-ply,SBD,M
Boys,124.74,1,Zachary Ledwick,La Grange,116.07,249.48,151.95,199.58,601.01,Single-ply,SBD,M
Boys,124.74,2,Zackery Handricks,Giddings,122.11,188.24,142.88,183.7,514.83,Single-ply,SBD,M
Boys,124.74,3,D'Andre Clinton,La Grange,110.36,217.72,111.13,174.63,503.49,Single-ply,SBD,M
Boys,124.74,4,Brett Bartels,Columbus,111.13,147.42,79.38,145.15,371.95,Single-ply,SBD,M
Boys,124.74,NS,Ethan Allen,Giddings,,,,,,Single-ply,SBD,M
Boys,124.74+,1,Danny Bricker,Giddings,161.84,249.48,158.76,233.6,641.83,Single-ply,SBD,M
Boys,124.74+,2,Rj Gonzales,Altair Rice,126.05,244.94,129.27,226.8,601.01,Single-ply,SBD,M
Boys,124.74+,3,Alex Maturino,Columbus,134.63,224.53,108.86,181.44,514.83,Single-ply,SBD,M
Boys,124.74+,4,Dustin Blankemeyer,Bellville,136.08,215.46,106.59,181.44,503.49,Single-ply,SBD,M
Boys,124.74+,5,Bobby Alonso,Altair Rice,132.95,210.92,92.99,192.78,496.68,Single-ply,SBD,M
