Division,WeightClassKg,Place,Name,Team,BodyweightKg,Best3SquatKg,Best3BenchKg,Best3DeadliftKg,TotalKg,Equipment,Event,Sex
Boys,51.71,1,Ricky Lopez,Frisco Centennial,51.44,170.1,104.33,195.04,469.47,Single-ply,SBD,M
Boys,51.71,2,Diego Gallegos,Alvin,50.71,174.63,106.59,185.97,467.2,Single-ply,SBD,M
Boys,51.71,3,Cody Juarez,Alice,50.17,192.78,102.06,170.1,464.93,Single-ply,SBD,M
Boys,51.71,4,Anthony Garcia,Weslaco,51.07,165.56,108.86,181.44,455.86,Single-ply,SBD,M
Boys,51.71,5,Michael Casillas,Victoria West,51.44,170.1,97.52,181.44,449.06,Single-ply,SBD,M
Boys,51.71,6,Oscar Martel,Laredo United South,50.62,163.29,102.06,172.37,437.72,Single-ply,SBD,M
Boys,51.71,7,Osvaldo Lopez,Brownsville Hanna,50.71,165.56,90.72,165.56,421.84,Single-ply,SBD,M
Boys,51.71,8,Justin Hernandez,Weslaco East,50.08,163.29,79.38,172.37,415.04,Single-ply,SBD,M
Boys,51.71,9,Allen Guillen,Brownsville Lopez,50.44,183.7,70.31,161.03,415.04,Single-ply,SBD,M
Boys,51.71,10,Benny Lara,Victoria West,51.17,165.56,102.06,145.15,412.77,Single-ply,SBD,M
Boys,51.71,11,Esteban Urquieta,Corpus Christi Tuloso-Midway,50.44,174.63,70.31,163.29,408.23,Single-ply,SBD,M
Boys,51.71,12,Brendon Jones,Nederland,51.17,174.63,70.31,161.03,405.97,Single-ply,SBD,M
Boys,51.71,13,Leo Martinez,Rio Grande City,51.17,142.88,97.52,154.22,394.63,Single-ply,SBD,M
Boys,51.71,14,Ivan Shepherd,Cedar Hill,51.44,140.61,92.99,151.95,385.55,Single-ply,SBD,M
Boys,51.71,15,Anthony Lara,Wolfforth Frenship,50.44,136.08,83.91,154.22,374.21,Single-ply,SBD,M
Boys,51.71,16,Jordan Wilkerson,Keller Central,51.53,147.42,63.5,156.49,367.41,Single-ply,SBD,M
Boys,51.71,17,Cain Gala,Hallsville,49.53,129.27,88.45,147.42,365.14,Single-ply,SBD,M
Boys,51.71,18,David Cook,Burleson Centennial,51.71,129.27,83.91,149.69,362.87,Single-ply,SBD,M
Boys,51.71,19,Cesar Ledesma,Burleson,47.08,129.27,74.84,142.88,347,Single-ply,SBD,M
Boys,51.71,20,Avery Gallegos,Plainview,50.62,127.01,70.31,149.69,347,Single-ply,SBD,M
Boys,51.71,21,Pablo Gutierrez #1,Mount Pleasant,49.08,115.67,70.31,149.69,335.66,Single-ply,SBD,M
Boys,51.71,DQ,Gilbert Gonzalez,Edinburg Vela,47.63,,,,,Single-ply,SBD,M
Boys,55.79,1,Joel Sanchez #2,Brownsville Veterans Memorial,54.7,210.92,99.79,215.46,526.17,Single-ply,SBD,M
Boys,55.79,2,Matthew Longoria,Alvin,55.34,183.7,138.35,181.44,503.49,Single-ply,SBD,M
Boys,55.79,3,Nate Lunsford,Frisco Wakeland,55.34,192.78,106.59,195.04,494.42,Single-ply,SBD,M
Boys,55.79,4,Jason Jones,Burleson,55.16,185.97,97.52,208.65,492.15,Single-ply,SBD,M
Boys,55.79,5,Leo Alaniz,Brownsville Lopez,55.25,199.58,102.06,188.24,489.88,Single-ply,SBD,M
Boys,55.79,6,Michael Mitchell,San Antonio Southside,55.16,183.7,102.06,199.58,485.34,Single-ply,SBD,M
Boys,55.79,7,Joshua Morin,PSJA North,55.52,174.63,117.93,192.78,485.34,Single-ply,SBD,M
Boys,55.79,8,Jose Bautista #1,San Antonio East Central,55.7,190.51,108.86,179.17,478.54,Single-ply,SBD,M
Boys,55.79,9,Eulicez Gonzalez,San Antonio Southside,55.07,176.9,115.67,183.7,476.27,Single-ply,SBD,M
Boys,55.79,10,Misael Marquez,Brownsville Pace,55.25,185.97,113.4,170.1,469.47,Single-ply,SBD,M
Boys,55.79,11,Timothy Le,Port Neches-Groves,54.88,181.44,97.52,183.7,462.66,Single-ply,SBD,M
Boys,55.79,12,AJ Ono,Conroe The Woodlands,55.16,176.9,111.13,172.37,460.4,Single-ply,SBD,M
Boys,55.79,13,Tyler Salazar,Donna,54.34,176.9,102.06,174.63,453.59,Single-ply,SBD,M
Boys,55.79,14,Marco Pina,Donna North,55.34,161.03,97.52,174.63,433.18,Single-ply,SBD,M
Boys,55.79,15,Arlind Queriman,Aledo,55.34,158.76,104.33,170.1,433.18,Single-ply,SBD,M
Boys,55.79,16,Miguel Arroyo,San Angelo Lake View,55.25,163.29,92.99,163.29,419.57,Single-ply,SBD,M
Boys,55.79,17,Rushi Patel,College Station,54.61,170.1,88.45,158.76,417.3,Single-ply,SBD,M
Boys,55.79,18,Cysco Barrera,Plainview,55.52,147.42,74.84,170.1,392.36,Single-ply,SBD,M
Boys,55.79,19,Simon Schuler,Hallsville,55.07,136.08,92.99,154.22,383.29,Single-ply,SBD,M
Boys,55.79,20,Carter Winegeart,Tyler Lee,55.43,142.88,81.65,147.42,371.95,Single-ply,SBD,M
Boys,55.79,DQ,Ashton Mashaw,Conroe Caney Creek,55.25,,,,,Single-ply,SBD,M
Boys,55.79,DQ,Joseph Serino,Brownsville Hanna,54.98,,,,,Single-ply,SBD,M
Boys,59.87,1,Jose Alvarado #2,Brownsville Lopez,59.06,247.21,133.81,210.92,591.94,Single-ply,SBD,M
Boys,59.87,2,Ricky Cuellar,Brownsville Pace,59.69,213.19,131.54,192.78,537.51,Single-ply,SBD,M
Boys,59.87,3,Moc Moo,Port Lavaca Calhoun,59.69,217.72,113.4,204.12,535.24,Single-ply,SBD,M
Boys,59.87,4,Ricky Ortiz #1,Edcouch-Elsa,59.51,215.46,113.4,195.04,523.9,Single-ply,SBD,M
Boys,59.87,5,Leonardo Calderon,San Marcos,58.88,204.12,129.27,185.97,519.36,Single-ply,SBD,M
Boys,59.87,6,Mario Saldivar Jr,Laredo Alexander,59.24,192.78,115.67,197.31,505.76,Single-ply,SBD,M
Boys,59.87,7,Marcus Ysaguirre,Donna,58.79,210.92,104.33,188.24,503.49,Single-ply,SBD,M
Boys,59.87,8,Wilson Kirkbride,Denison,59.33,192.78,108.86,192.78,494.42,Single-ply,SBD,M
Boys,59.87,9,Christian Contreras #3,Greenville,59.06,188.24,108.86,181.44,478.54,Single-ply,SBD,M
Boys,59.87,10,Nathaniel Burnett,Lockhart,58.51,172.37,108.86,192.78,474,Single-ply,SBD,M
Boys,59.87,11,Edgar Aguirre,Everman,58.33,192.78,92.99,181.44,467.2,Single-ply,SBD,M
Boys,59.87,12,Cody Coombs,San Angelo Lake View,59.6,179.17,102.06,176.9,458.13,Single-ply,SBD,M
Boys,59.87,13,Qj Domio,Dayton,58.24,163.29,104.33,174.63,442.25,Single-ply,SBD,M
Boys,59.87,14,Jaden Schroeder,Huntsville,58.51,174.63,97.52,170.1,442.25,Single-ply,SBD,M
Boys,59.87,15,Kevin Phan,Plainview,59.42,174.63,86.18,170.1,430.91,Single-ply,SBD,M
Boys,59.87,DQ,Edgar Benegas,Conroe,59.15,206.38,97.52,,,Single-ply,SBD,M
Boys,67.13,1,Gavin Webster,Conroe The Woodlands,66.59,265.35,158.76,244.94,669.05,Single-ply,SBD,M
Boys,67.13,2,Anthony Perez,Killeen Shoemaker,66.59,258.55,147.42,235.87,641.83,Single-ply,SBD,M
Boys,67.13,3,Jonathan Zelaya,Victoria East,65.59,274.42,136.08,213.19,623.69,Single-ply,SBD,M
Boys,67.13,4,Brandon Palomares,Seguin,65.59,238.14,127.01,235.87,601.01,Single-ply,SBD,M
Boys,67.13,5,Josue Tobias,Laredo Nixon,66.32,226.8,131.54,238.14,596.47,Single-ply,SBD,M
Boys,67.13,6,Kenny Bounds,Montgomery,66.59,222.26,149.69,222.26,594.21,Single-ply,SBD,M
Boys,67.13,7,Pablo Cavazos,Dickinson,66.32,260.82,104.33,226.8,591.94,Single-ply,SBD,M
Boys,67.13,8,Jose Cumpean,Port Lavaca Calhoun,66.95,226.8,140.61,215.46,582.87,Single-ply,SBD,M
Boys,67.13,9,Andrew Magedson,Greenville,66.86,229.06,115.67,235.87,580.6,Single-ply,SBD,M
Boys,67.13,10,Jett Ertle,Keller,67.13,210.92,124.74,206.38,542.04,Single-ply,SBD,M
Boys,67.13,11,Jesse Graham,Aledo,66.41,215.46,124.74,199.58,539.77,Single-ply,SBD,M
Boys,67.13,12,Christian Maldonado,Canyon Randall,65.5,199.58,145.15,185.97,530.7,Single-ply,SBD,M
Boys,67.13,13,Sergio Guerrero,Mission Veterans Memorial,66.77,213.19,111.13,206.38,530.7,Single-ply,SBD,M
Boys,67.13,14,Jordan Baker,Huntsville,67.13,199.58,120.2,206.38,526.17,Single-ply,SBD,M
Boys,67.13,15,Ethan Haynes,Burleson,65.77,197.31,111.13,197.31,505.76,Single-ply,SBD,M
Boys,67.13,DQ,Jose Porras,Brownsville Hanna,64.86,,,,,Single-ply,SBD,M
Boys,67.13,DQ,Hugo Salas,Brownsville Lopez,65.68,260.82,133.81,,,Single-ply,SBD,M
Boys,67.13,DQ,Abraham Hernandez,La Joya Palmview,65.32,233.6,117.93,,,Single-ply,SBD,M
Boys,67.13,DQ,Cody Elizalde,Seguin,65.59,222.26,115.67,,,Single-ply,SBD,M
Boys,67.13,DQ,Robert Alaniz,Weslaco East,66.41,226.8,124.74,,,Single-ply,SBD,M
Boys,74.84,1,Daniel Leita,Port Lavaca Calhoun,74.66,294.84,149.69,272.16,716.68,Single-ply,SBD,M
Boys,74.84,2,Gage Carreon,Port Neches-Groves,74.39,265.35,147.42,276.69,689.46,Single-ply,SBD,M
Boys,74.84,3,Jacob Gracia,Weslaco,73.48,272.16,149.69,258.55,680.39,Single-ply,SBD,M
Boys,74.84,4,Asa Spade,Splendora,73.48,263.08,145.15,226.8,635.03,Single-ply,SBD,M
Boys,74.84,5,Elvin Martinez,Huntsville,73.57,235.87,131.54,240.4,607.81,Single-ply,SBD,M
Boys,74.84,6,Noah Moreno,Keller Central,73.84,260.82,122.47,222.26,605.55,Single-ply,SBD,M
Boys,74.84,7,George Kennard,Frisco Wakeland,72.57,229.06,140.61,233.6,603.28,Single-ply,SBD,M
Boys,74.84,8,Steven Mancillas,Dallas Jesuit,73.39,242.67,129.27,229.06,601.01,Single-ply,SBD,M
Boys,74.84,9,Ramses Ramos,Brownsville Lopez,72.03,251.74,102.06,244.94,598.74,Single-ply,SBD,M
Boys,74.84,10,Braden Tschirhart,College Station,72.48,238.14,149.69,206.38,594.21,Single-ply,SBD,M
Boys,74.84,11,Issac Johnson,Elgin,72.57,238.14,122.47,231.33,591.94,Single-ply,SBD,M
Boys,74.84,12,Jorge Almanza,Edinburg Economedes,73.66,226.8,136.08,217.72,580.6,Single-ply,SBD,M
Boys,74.84,13,Dawson Nobriga,Channelview,73.21,217.72,142.88,217.72,578.33,Single-ply,SBD,M
Boys,74.84,14,Nick Gonzales,Floresville,73.57,208.65,136.08,231.33,576.06,Single-ply,SBD,M
Boys,74.84,15,Francisco Marin,Weslaco,72.57,226.8,124.74,215.46,566.99,Single-ply,SBD,M
Boys,74.84,16,Justin Gipson,Frisco Reedy,74.12,217.72,124.74,213.19,555.65,Single-ply,SBD,M
Boys,74.84,17,Mario Martinez,San Angelo Central,73.3,210.92,120.2,199.58,530.7,Single-ply,SBD,M
Boys,74.84,18,John Paul Estrada,Midland,71.76,190.51,149.69,181.44,521.63,Single-ply,SBD,M
Boys,74.84,DQ,Jorge Cavazos,Mercedes,72.3,226.8,142.88,,,Single-ply,SBD,M
Boys,74.84,DQ,John Salazar,Los Fresnos,73.39,226.8,140.61,,,Single-ply,SBD,M
Boys,74.84,DQ,Ricardo Miranda,Los Fresnos,72.76,210.92,,,,Single-ply,SBD,M
Boys,74.84,DQ,Alex Gonzales #2,Alice,73.12,251.74,,,,Single-ply,SBD,M
Boys,74.84,DQ,Jeremy Glenn,Greenville,74.39,204.12,113.4,,,Single-ply,SBD,M
Boys,74.84,DQ,Sean De La Garza,Mission Veterans Memorial,73.3,,,,,Single-ply,SBD,M
Boys,82.1,1,Gabriel Cantu,Corpus Christi Calallen,78.93,258.55,149.69,285.76,694,Single-ply,SBD,M
Boys,82.1,2,Omar Essix,Waco,79.65,260.82,129.27,281.23,671.32,Single-ply,SBD,M
Boys,82.1,3,Gio Martinez,Brownsville Porter,80.56,249.48,154.22,265.35,669.05,Single-ply,SBD,M
Boys,82.1,4,Diego Hernandez,La Joya Palmview,80.01,272.16,156.49,226.8,655.44,Single-ply,SBD,M
Boys,82.1,5,Matt Hemphill,Dripping Springs,80.47,263.08,147.42,240.4,650.91,Single-ply,SBD,M
Boys,82.1,6,Adrian Sustaita,Castroville Medina Valley,80.74,251.74,151.95,238.14,641.83,Single-ply,SBD,M
Boys,82.1,7,Jacob Lewallen,Belton,80.01,244.94,129.27,260.82,635.03,Single-ply,SBD,M
Boys,82.1,8,Chayce Grevey,Victoria West,77.93,240.4,147.42,240.4,628.23,Single-ply,SBD,M
Boys,82.1,9,Robert Franklin,College Station A&M; Cons,80.56,238.14,154.22,235.87,628.23,Single-ply,SBD,M
Boys,82.1,10,Andres Perez,Plano,81.74,260.82,142.88,217.72,621.42,Single-ply,SBD,M
Boys,82.1,11,Jorden Craig,Hurst Bell,79.92,233.6,158.76,217.72,610.08,Single-ply,SBD,M
Boys,82.1,12,Tyler Gonzales,Midland,77.56,238.14,147.42,222.26,607.81,Single-ply,SBD,M
Boys,82.1,13,Ken'twaun Freeman,Victoria West,80.1,226.8,133.81,247.21,607.81,Single-ply,SBD,M
Boys,82.1,14,Austin Powell,Plainview,80.74,219.99,140.61,240.4,601.01,Single-ply,SBD,M
Boys,82.1,15,Mason Rey,Conroe,79.74,235.87,136.08,219.99,591.94,Single-ply,SBD,M
Boys,82.1,16,Beau Ramos,Texas City,78.38,240.4,122.47,208.65,571.53,Single-ply,SBD,M
Boys,82.1,17,Cor'tavius Pruitt,Sulphur Springs,78.11,226.8,129.27,204.12,560.19,Single-ply,SBD,M
Boys,82.1,DQ,Pablo Garza,Brownsville Pace,81.92,,,235.87,,Single-ply,SBD,M
Boys,82.1,DQ,Alevon Holloman,Huntsville,80.38,231.33,131.54,,,Single-ply,SBD,M
Boys,82.1,DQ,Angel Mendez #1,Edinburg,81.19,,,,,Single-ply,SBD,M
Boys,89.81,1,Roy Kelley,Conroe,88.72,301.64,154.22,288.03,743.89,Single-ply,SBD,M
Boys,89.81,2,Caleb Johnson,Lumberton,88.9,265.35,176.9,258.55,700.8,Single-ply,SBD,M
Boys,89.81,3,Jesse Luna,Brownsville Lopez,88,276.69,142.88,260.82,680.39,Single-ply,SBD,M
Boys,89.81,4,Nathan Ellard,College Station,87.27,294.84,154.22,229.06,678.12,Single-ply,SBD,M
Boys,89.81,5,Fernando Hernandez,La Joya Juarez-Lincoln,88,260.82,167.83,249.48,678.12,Single-ply,SBD,M
Boys,89.81,6,Obed Hernandez,Sharyland Pioneer,88.63,281.23,142.88,247.21,671.32,Single-ply,SBD,M
Boys,89.81,7,Garrett Parkhill,Burleson Centennial,89.36,265.35,151.95,249.48,666.78,Single-ply,SBD,M
Boys,89.81,8,Nathan Silva,Brownsville Hanna,87.36,272.16,133.81,256.28,662.24,Single-ply,SBD,M
Boys,89.81,9,Dustin Tatar,Vidor,87.91,247.21,142.88,260.82,650.91,Single-ply,SBD,M
Boys,89.81,10,Jason Jasperson,College Station A&M; Cons,88.27,254.01,147.42,249.48,650.91,Single-ply,SBD,M
Boys,89.81,11,Blake Shafer,Vidor,87.82,260.82,147.42,238.14,646.37,Single-ply,SBD,M
Boys,89.81,12,Josh Chandler,Midland,87.72,229.06,170.1,242.67,641.83,Single-ply,SBD,M
Boys,89.81,13,Federico Ruiz Jr,Corpus Christi Calallen,88.27,256.28,131.54,251.74,639.57,Single-ply,SBD,M
Boys,89.81,14,Jorge Ochoa,Beaumont West Brook,89.27,254.01,151.95,233.6,639.57,Single-ply,SBD,M
Boys,89.81,15,Ernesto Preciado,Pharr Valley View,89.09,249.48,161.03,226.8,637.3,Single-ply,SBD,M
Boys,89.81,16,Brenden Buggage,Fort Worth Western Hills,88.36,251.74,138.35,244.94,635.03,Single-ply,SBD,M
Boys,89.81,17,Omar Salazar,Brownsville Lopez,88.63,274.42,136.08,224.53,635.03,Single-ply,SBD,M
Boys,89.81,18,Ali Jumili,Conroe The Woodlands,88.99,240.4,142.88,247.21,630.49,Single-ply,SBD,M
Boys,89.81,19,Jordan Odulio,Dallas Jesuit,86.36,260.82,129.27,235.87,625.96,Single-ply,SBD,M
Boys,89.81,20,Evan Jackson,Dallas Jesuit,86,242.67,138.35,242.67,623.69,Single-ply,SBD,M
Boys,89.81,21,Walker Holverson,Tomball,87.54,240.4,131.54,244.94,616.89,Single-ply,SBD,M
Boys,89.81,22,Hunter Hutchins,Northwest Nelson,88.27,242.67,129.27,244.94,616.89,Single-ply,SBD,M
Boys,89.81,23,Hagen Brown,Floresville,87.18,244.94,142.88,226.8,614.62,Single-ply,SBD,M
Boys,89.81,24,Jonathan Jones,Willis,88.99,215.46,145.15,254.01,614.62,Single-ply,SBD,M
Boys,89.81,25,David Bledsoe,Lindale,87.54,224.53,140.61,235.87,601.01,Single-ply,SBD,M
Boys,89.81,DQ,Prudy Calderon,San Marcos,86.18,235.87,131.54,,,Single-ply,SBD,M
Boys,89.81,DQ,Luis Guzman,San Antonio Southside,88.9,272.16,,,,Single-ply,SBD,M
Boys,89.81,DQ,Roy Pedraza,Weslaco East,86.18,283.5,,,,Single-ply,SBD,M
Boys,89.81,DQ,Braden Robertson,Weatherford,84.46,260.82,,,,Single-ply,SBD,M
Boys,89.81,DQ,Trey Caballero,Weslaco,88.36,265.35,,,,Single-ply,SBD,M
Boys,89.81,DQ,Chris Arnold #1,Texarkana Texas,87.63,,,,,Single-ply,SBD,M
Boys,89.81,DQ,David Cardenas,Brownsville Pace,88.09,,,,,Single-ply,SBD,M
Boys,,NS,Devin Romero,Abilene,,,,,,Single-ply,SBD,M
Boys,99.79,1,Paul Sanchez,Hutto,96.43,306.17,158.76,288.03,752.96,Single-ply,SBD,M
Boys,99.79,2,Ricky Arreola,Brownsville Hanna,96.62,317.51,185.97,247.21,750.7,Single-ply,SBD,M
Boys,99.79,3,George Villela,Gregory-Portland,98.52,308.44,176.9,260.82,746.16,Single-ply,SBD,M
Boys,99.79,4,Leo Gonzalez,Brownsville Hanna,95.25,299.37,151.95,290.3,741.62,Single-ply,SBD,M
Boys,99.79,5,Eddie Garcia,Port Lavaca Calhoun,98.52,301.64,165.56,256.28,723.48,Single-ply,SBD,M
Boys,99.79,6,Daniel Ramos,Brownsville Lopez,96.8,292.57,176.9,249.48,718.94,Single-ply,SBD,M
Boys,99.79,7,Jacob Fussell,Lumberton,96.16,294.84,156.49,254.01,705.34,Single-ply,SBD,M
Boys,99.79,8,Keoni Garcia,Midland,96.43,272.16,179.17,254.01,705.34,Single-ply,SBD,M
Boys,99.79,9,Dylan Hipsman,Midlothian,97.07,263.08,165.56,276.69,705.34,Single-ply,SBD,M
Boys,99.79,10,Abel Longoria,Kyle Lehman,98.79,294.84,165.56,244.94,705.34,Single-ply,SBD,M
Boys,99.79,11,Caleb High,Waxahachie,95.35,272.16,163.29,265.35,700.8,Single-ply,SBD,M
Boys,99.79,12,Christian Godinez,Brownsville Lopez,98.25,292.57,167.83,240.4,700.8,Single-ply,SBD,M
Boys,99.79,13,Jerry Leyba,Belton,97.61,274.42,167.83,249.48,691.73,Single-ply,SBD,M
Boys,99.79,14,Christian Oviedo,Victoria East,98.07,269.89,190.51,231.33,691.73,Single-ply,SBD,M
Boys,99.79,15,Nick Stewart,Waxahachie,97.34,240.4,172.37,272.16,684.92,Single-ply,SBD,M
Boys,99.79,16,Kallen Miller,Montgomery,99.34,276.69,156.49,249.48,682.66,Single-ply,SBD,M
Boys,99.79,17,Carlos Zarate,Mission Sharyland,98.25,254.01,156.49,254.01,664.51,Single-ply,SBD,M
Boys,99.79,18,Noah Clarkson,Magnolia West,98.7,251.74,170.1,240.4,662.24,Single-ply,SBD,M
Boys,99.79,19,Daniel Parr,Dickinson,98.88,272.16,151.95,238.14,662.24,Single-ply,SBD,M
Boys,99.79,20,Jake Beaird,Weatherford,94.35,258.55,161.03,226.8,646.37,Single-ply,SBD,M
Boys,99.79,21,Osvaldo Gomez,Edinburg Economedes,97.34,242.67,163.29,240.4,646.37,Single-ply,SBD,M
Boys,99.79,22,Jose Rodriguez #6,Dickinson,97.61,258.55,145.15,235.87,639.57,Single-ply,SBD,M
Boys,99.79,23,D'Idrec Dugan,Sulphur Springs,99.25,226.8,131.54,272.16,630.49,Single-ply,SBD,M
Boys,99.79,24,Randy Mendoza,Plainview,99.61,240.4,149.69,217.72,607.81,Single-ply,SBD,M
Boys,99.79,DQ,Blake Edgington,Joshua,96.43,258.55,138.35,,,Single-ply,SBD,M
Boys,99.79,DQ,Josh Ferguson,Katy Taylor,90.72,,,,,Single-ply,SBD,M
Boys,99.79,DQ,Joe Thomas,Beaumont Ozen,98.52,301.64,,,,Single-ply,SBD,M
Boys,99.79,DQ,Mauricio Rojas,Carrollton Turner,98.52,,,,,Single-ply,SBD,M
Boys,99.79,DQ,Rick Reyes,Buda Hays,91.81,,,,,Single-ply,SBD,M
Boys,109.77,1,Jose Hernandez #5,San Marcos,107.68,324.32,170.1,269.89,764.3,Single-ply,SBD,M
Boys,109.77,2,Adrian Arredondo,Brownsville Hanna,108.05,315.25,188.24,249.48,752.96,Single-ply,SBD,M
Boys,109.77,3,Brayden Mercer,Burleson,106.14,285.76,195.04,267.62,748.43,Single-ply,SBD,M
Boys,109.77,4,Gavin Franklin,Conroe Oak Ridge,106.59,294.84,170.1,281.23,746.16,Single-ply,SBD,M
Boys,109.77,5,Juan Martinez,Donna North,107.95,306.17,165.56,272.16,743.89,Single-ply,SBD,M
Boys,109.77,6,Kevin Nguyen #9,Friendswood Clear Brook,107.59,290.3,179.17,269.89,739.36,Single-ply,SBD,M
Boys,109.77,7,Marcus Garza,Conroe Caney Creek,108.95,317.51,170.1,247.21,734.82,Single-ply,SBD,M
Boys,109.77,8,Andrew Turner,Mount Pleasant,103.6,283.5,181.44,263.08,728.02,Single-ply,SBD,M
Boys,109.77,9,Sam Rodriguez,La Joya,108.5,290.3,174.63,247.21,712.14,Single-ply,SBD,M
Boys,109.77,10,Cody Alvarado,Edcouch-Elsa,108.86,288.03,167.83,254.01,709.87,Single-ply,SBD,M
Boys,109.77,11,Thomas Godi,Burleson Centennial,106.59,283.5,176.9,247.21,707.6,Single-ply,SBD,M
Boys,109.77,12,Octavius Vera,Plainview,108.77,301.64,165.56,240.4,707.6,Single-ply,SBD,M
Boys,109.77,13,Gus Silva,Donna,108.32,294.84,172.37,238.14,705.34,Single-ply,SBD,M
Boys,109.77,14,Leo Colom,Port Lavaca Calhoun,104.14,260.82,161.03,278.96,700.8,Single-ply,SBD,M
Boys,109.77,15,Anthony Perez,Waxahachie,105.23,263.08,176.9,260.82,700.8,Single-ply,SBD,M
Boys,109.77,16,Jacob Banda,Weslaco East,106.32,272.16,158.76,267.62,698.53,Single-ply,SBD,M
Boys,109.77,17,Marcos Garza,Edinburg Economedes,105.78,276.69,170.1,249.48,696.26,Single-ply,SBD,M
Boys,109.77,18,Hunter Grimmett,Montgomery,106.41,283.5,167.83,244.94,696.26,Single-ply,SBD,M
Boys,109.77,19,Arturo Jaimes,Belton,104.33,272.16,145.15,274.42,691.73,Single-ply,SBD,M
Boys,109.77,20,Jaylon Manigo,Mansfield Timberview,104.33,272.16,172.37,244.94,689.46,Single-ply,SBD,M
Boys,109.77,21,Clifford Chambers,Bryan Rudder,107.5,308.44,154.22,222.26,684.92,Single-ply,SBD,M
Boys,109.77,22,O'Ryan Farley,Odessa Permian,108.23,231.33,136.08,249.48,616.89,Single-ply,SBD,M
Boys,109.77,DQ,Tanner Oliver,Keller Timber Creek,104.6,,,,,Single-ply,SBD,M
Boys,109.77,DQ,Adrien Martinez,Brownsville Hanna,106.32,,,,,Single-ply,SBD,M
Boys,109.77,DQ,March Thomas,Lufkin,107.32,,,,,Single-ply,SBD,M
Boys,109.77,DQ,Derek Parish,Pearland,109.59,294.84,,,,Single-ply,SBD,M
Boys,124.74,1,Jacob Rodriguez #4,Corpus Christi Tuloso-Midway,123.01,371.95,195.04,276.69,843.68,Single-ply,SBD,M
Boys,124.74,2,Jason Suniga,Victoria West,120.93,328.85,197.31,238.14,764.3,Single-ply,SBD,M
Boys,124.74,3,Roman Ruiz,Lockhart,123.2,290.3,190.51,276.69,757.5,Single-ply,SBD,M
Boys,124.74,4,Pablo Trevino,Edinburg Vela,123.47,297.1,185.97,258.55,741.62,Single-ply,SBD,M
Boys,124.74,5,Jorge Soto,Edcouch-Elsa,116.94,281.23,204.12,249.48,734.82,Single-ply,SBD,M
Boys,124.74,6,Leo Balderas,Plainview,118.57,310.71,156.49,263.08,730.28,Single-ply,SBD,M
Boys,124.74,7,Fabian Castillo,Edinburg Economedes,122.47,292.57,183.7,247.21,723.48,Single-ply,SBD,M
Boys,124.74,8,Javon Chambers,Belton,122.02,317.51,176.9,222.26,716.68,Single-ply,SBD,M
Boys,124.74,9,Christian Castro,Brownsville Pace,124.01,317.51,154.22,244.94,716.68,Single-ply,SBD,M
Boys,124.74,10,Andres Zuniga,PSJA North,122.29,294.84,181.44,238.14,714.41,Single-ply,SBD,M
Boys,124.74,11,Joseph Issac,Huntsville,123.2,278.96,185.97,249.48,714.41,Single-ply,SBD,M
Boys,124.74,12,Lazaro Garcia,South Garland,113.67,283.5,161.03,267.62,712.14,Single-ply,SBD,M
Boys,124.74,13,Colby Thomas,Manvel,123.1,260.82,183.7,265.35,709.87,Single-ply,SBD,M
Boys,124.74,14,Justin Garza,Brownsville Rivera,124.56,322.05,149.69,238.14,709.87,Single-ply,SBD,M
Boys,124.74,15,Justin Hoffman,Bastrop,124.19,272.16,192.78,242.67,707.6,Single-ply,SBD,M
Boys,124.74,16,Dustin Nicholas,Huntsville,115.85,276.69,161.03,265.35,703.07,Single-ply,SBD,M
Boys,124.74,17,Jaterrius Pleasant,Burleson,116.39,269.89,161.03,269.89,700.8,Single-ply,SBD,M
Boys,124.74,18,Tyler Noles,Georgetown,116.03,299.37,151.95,244.94,696.26,Single-ply,SBD,M
Boys,124.74,19,Quincy Warren,Everman,114.12,260.82,158.76,260.82,680.39,Single-ply,SBD,M
Boys,124.74,DQ,Jonathan Ojeda,Brownsville Pace,120.93,299.37,158.76,,,Single-ply,SBD,M
Boys,124.74,DQ,Niko Afuhaamango,Pearland,113.4,249.48,,,,Single-ply,SBD,M
Boys,124.74+,1,Terry Carter,Livingston,157.4,344.73,197.31,317.51,859.56,Single-ply,SBD,M
Boys,124.74+,2,Eli Olivo,Donna North,145.51,347,242.67,254.01,843.68,Single-ply,SBD,M
Boys,124.74+,3,Josh Trevino,Brownsville Lopez,141.07,347,190.51,274.42,811.93,Single-ply,SBD,M
Boys,124.74+,4,Dawson Smith,Huntsville,137.98,312.98,226.8,256.28,796.05,Single-ply,SBD,M
Boys,124.74+,5,Caleb Reed,Everman,133.72,328.85,172.37,285.76,786.98,Single-ply,SBD,M
Boys,124.74+,6,Brandon Perez #2,Weslaco,171.46,322.05,195.04,265.35,782.45,Single-ply,SBD,M
Boys,124.74+,7,Marquis Gardner,Manor,158.12,340.19,190.51,226.8,757.5,Single-ply,SBD,M
Boys,124.74+,8,Domenic Valdespino,Pflugerville Hendrickson,145.51,294.84,181.44,274.42,750.7,Single-ply,SBD,M
Boys,124.74+,9,Michael Vega,McAllen Rowe,140.25,310.71,219.99,215.46,746.16,Single-ply,SBD,M
Boys,124.74+,10,Odie De La Rosa,Castroville Medina Valley,151.86,303.91,192.78,249.48,746.16,Single-ply,SBD,M
Boys,124.74+,11,Max Casas,Pearland Dawson,137.08,303.91,170.1,265.35,739.36,Single-ply,SBD,M
Boys,124.74+,12,Dominic Pastucci,Pflugerville Hendrickson,136.71,274.42,197.31,265.35,737.09,Single-ply,SBD,M
Boys,124.74+,13,Nicholas Carbajhal,Carrollton Turner,134.54,290.3,197.31,247.21,734.82,Single-ply,SBD,M
Boys,124.74+,14,Paxton Heiting,Midland,128.37,249.48,197.31,265.35,712.14,Single-ply,SBD,M
Boys,124.74+,15,Trevor Townsend,Plainview,148.6,285.76,174.63,238.14,698.53,Single-ply,SBD,M
Boys,124.74+,16,Larry Davis,Corsicana,165.2,281.23,181.44,226.8,689.46,Single-ply,SBD,M
Boys,124.74+,17,Jimmy White,Willis,134.9,265.35,183.7,238.14,687.19,Single-ply,SBD,M
Boys,124.74+,DQ,Alfredo Martinez Lara,Los Fresnos,136.53,,,,,Single-ply,SBD,M
Boys,124.74+,DQ,Devin Collins,Ennis,147.42,292.57,185.97,,,Single-ply,SBD,M
