Place,Name,State,WeightClassKg,BodyweightKg,Age,Best3SquatKg,Best3BenchKg,Best3DeadliftKg,TotalKg,Sex,Division,Equipment,Event,Bench4Kg,Deadlift4Kg
1,Marilyn Zapata,CA,52,48.4,21,95,50,125,270,F,Juniors 20-23,Raw,SBD,,
1,Kimberly Cooke,CA,60,56.8,23,95,50,105,250,F,Juniors 20-23,Raw,SBD,,
1,Ashlie Burns,CA,75,74.4,18,107.5,52.5,142.5,302.5,F,Juniors 18-19,Raw,SBD,,
1,Gabriela Benavides,CA,82.5,79.1,19,112.5,60,122.5,295,F,Juniors 18-19,Raw,SBD,,
1,Jessica Cruz,CA,82.5,76.5,22,130,55,145,330,F,Juniors 20-23,Raw,SBD,,
1,Marilyn Zapata,CA,52,48.4,21,95,50,125,270,F,Open,Raw,SBD,,
1,Sarah Payne,CA,67.5,67.3,33,142.5,92.5,160,395,F,Open,Raw,SBD,,
2,Rosa Salvatierra,CA,67.5,65.5,29,112.5,72.5,167.5,352.5,F,Open,Raw,SBD,,
1,Laura Cabrera,CA,75,74.5,30,115,47.5,140,302.5,F,Open,Raw,SBD,,
DQ,Kristiane Supinger,CA,75,73.9,38,110,77.5,,,F,Open,Raw,SBD,,
1,Jessica Cruz,CA,82.5,76.5,22,130,55,145,330,F,Open,Raw,SBD,,
1,Sicily Easley,CA,67.5,66.2,45,110,82.5,142.5,335,F,Masters 45-49,Raw,SBD,,
1,Cody Lawrence,CA,60,57.9,20,172.5,115,172.5,460,M,Juniors 20-23,Raw,SBD,,
2,Benjamin Salazar,CA,60,57.8,20,122.5,92.5,160,375,M,Juniors 20-23,Raw,SBD,,
1,Jacob Hernandez,CA,67.5,65.4,21,132.5,110,167.5,410,M,Juniors 20-23,Raw,SBD,,
1,Miguel Medrano,CA,75,70.7,15,125,97.5,160,382.5,M,Juniors 13-15,Raw,SBD,,
1,Steven Saeteurn,CA,82.5,82,22,185,130,222.5,537.5,M,Juniors 20-23,Raw,SBD,,
1,Nick Mounmanivong,CA,90,88.2,23,207.5,137.5,252.5,597.5,M,Juniors 20-23,Raw,SBD,,
1,Jessi Ayala,CA,100,94.9,16,195,85,240,520,M,Juniors 16-17,Raw,SBD,,
1,Tristan Almager,CA,110,109.4,21,250,157.5,280,687.5,M,Juniors 20-23,Raw,SBD,,
1,Jose Lugo,CA,125,124,18,215,132.5,262.5,610,M,Juniors 18-19,Raw,SBD,,
1,Edwar Hernandez,CA,125,115.4,20,227.5,135,265,627.5,M,Juniors 20-23,Raw,SBD,,
1,Santiago Vasquez,CA,140,136.4,22,227.5,177.5,277.5,682.5,M,Juniors 20-23,Raw,SBD,,
1,Cody Lawrence,CA,60,57.9,20,172.5,115,172.5,460,M,Open,Raw,SBD,,
1,Alex Bonta,CA,75,72.3,24,187.5,117.5,202.5,507.5,M,Open,Raw,SBD,,
2,Pa Saechao,CA,75,73,36,172.5,112.5,195,480,M,Open,Raw,SBD,,
1,Edwin Koh,CA,82.5,79.1,26,250,145,295,690,M,Open,Raw,SBD,,
2,Jermaine Truvillion,CA,82.5,79.3,34,185,160,235,580,M,Open,Raw,SBD,,
3,Omar Huipio,CA,82.5,81.2,35,162.5,110,227.5,500,M,Open,Raw,SBD,,
4,Joseph Rodriguez,CA,82.5,78.9,33,115,97.5,165,377.5,M,Open,Raw,SBD,,
DQ,Nathaniel Sarkar,CA,82.5,80.9,25,175,,200,,M,Open,Raw,SBD,,
1,Nick Mounmanivong,CA,90,88.2,23,207.5,137.5,252.5,597.5,M,Open,Raw,SBD,,
2,Fernando Llamas,CA,90,90,28,167.5,125,207.5,500,M,Open,Raw,SBD,,
3,James Gallaher,CA,90,89.9,25,185,105,172.5,462.5,M,Open,Raw,SBD,,
4,Chris Nieto,CA,90,90,37,150,105,205,460,M,Open,Raw,SBD,,
1,Robert Mallory,CA,100,98.9,31,232.5,165,280,677.5,M,Open,Raw,SBD,,
2,Brice Nielsen,CA,100,97.3,28,192.5,127.5,235,555,M,Open,Raw,SBD,,
3,Taylor Lehman,CA,100,98.4,28,182.5,152.5,205,540,M,Open,Raw,SBD,,
1,Tristan Almager,CA,110,109.4,21,250,157.5,280,687.5,M,Open,Raw,SBD,,
2,Jimmy Flores,CA,110,104.8,50,205,185,290,680,M,Open,Raw,SBD,,
3,Lorde Aldrin Grande,CA,110,107.7,29,215,165,255,635,M,Open,Raw,SBD,,
1,Scott George,CA,125,123.7,27,237.5,195,255,687.5,M,Open,Raw,SBD,,
2,Tyler Savery,CA,125,121.9,26,220,152.5,277.5,650,M,Open,Raw,SBD,,
3,Ben Gallaher,CA,125,120,33,210,165,272.5,647.5,M,Open,Raw,SBD,,
4,Sam Quillen,CA,125,117.5,33,227.5,150,260,637.5,M,Open,Raw,SBD,,
5,Jose Noyola,CA,125,113.1,27,195,145,242.5,582.5,M,Open,Raw,SBD,,
1,Pedro Zepeda,CA,140,137.9,25,260,197.5,302.5,760,M,Open,Raw,SBD,,
1,Pa Saechao,CA,75,73,36,172.5,112.5,195,480,M,Submasters 35-39,Raw,SBD,,
1,Omar Huipio,CA,82.5,81.2,35,162.5,110,227.5,500,M,Submasters 35-39,Raw,SBD,,
1,Arthur Tellez,CA,100,93.7,37,165,137.5,237.5,540,M,Submasters 35-39,Raw,SBD,,
1,Rasha Casteel,CA,125,114.3,36,125,147.5,200,472.5,M,Submasters 35-39,Raw,SBD,,
1,Vice Lujan,CA,110,101.1,41,190,147.5,240,577.5,M,Masters 40-44,Raw,SBD,,
1,Jimmy Flores,CA,110,104.8,50,205,185,290,680,M,Masters 50-54,Raw,SBD,,
1,Gregory Cotterell,CA,110,108.6,59,197.5,137.5,245,580,M,Masters 55-59,Raw,SBD,,
1,Brian Nicklas,CA,125,120.6,40,200,160,235,595,M,Masters 40-44,Raw,SBD,,
1,Frederick Martinez,CA,125,124.6,53,215,185,295,695,M,Masters 50-54,Raw,SBD,,
1,Jacqueline Gonzalez-Hernandez,CA,75,73,20,165,70,155,390,F,Juniors 20-23,Wraps,SBD,,
1,Tera Hernandez,CA,60,59.6,26,105,52.5,122.5,280,F,Open,Wraps,SBD,,
1,Dana Narez,CA,75,73.7,25,177.5,95,182.5,455,F,Open,Wraps,SBD,,
1,Brittany Lopez,CA,82.5,78.5,29,155,75,170,400,F,Open,Wraps,SBD,,
2,Rachel Simpson,CA,82.5,79.4,25,137.5,65,170,372.5,F,Open,Wraps,SBD,,
1,Araceli Rosales,CA,90,89.2,29,125,72.5,162.5,360,F,Open,Wraps,SBD,,
1,Vannessa Patino,CA,82.5,76,37,120,62.5,137.5,320,F,Submasters 35-39,Wraps,SBD,,
1,Cody Weedman,CA,100,96.8,20,240,145,272.5,657.5,M,Juniors 20-23,Wraps,SBD,,
1,Che Costa,CA,110,106.1,21,227.5,132.5,237.5,597.5,M,Juniors 20-23,Wraps,SBD,,
1,Jesse Lanuevo,CA,60,59.9,29,228,135,265,628,M,Open,Wraps,SBD,,
1,Marquis Station,CA,90,89.2,25,225,160,257.5,642.5,M,Open,Wraps,SBD,,
2,Gabriel Aquino,CA,90,88.4,28,185,117.5,235,537.5,M,Open,Wraps,SBD,,
1,Cody Weedman,CA,100,96.8,20,240,145,272.5,657.5,M,Open,Wraps,SBD,,
2,Nicholas Mitchell,CA,100,99.7,39,232.5,167.5,242.5,642.5,M,Open,Wraps,SBD,,
3,Troy Young,CA,100,91.1,26,195,120,205,520,M,Open,Wraps,SBD,,
1,Lazaro Rodriguez Jr,CA,140,128.5,29,347.5,205,365,917.5,M,Open,Wraps,SBD,,
2,Clayton Cox,CA,140,131.3,28,320,205,322.5,847.5,M,Open,Wraps,SBD,,
3,Charles Blue,CA,140,129.1,34,272.5,182.5,272.5,727.5,M,Open,Wraps,SBD,,
1,Daniel Burns #2,CA,125,124.3,44,230,172.5,257.5,660,M,Masters 40-44,Wraps,SBD,,
1,Danielle Munoz,CA,82.5,80,22,185,92.5,162.5,440,F,Juniors 20-23,Single-ply,SBD,,
1,Elaina Bonilla,CA,52,48.6,24,102.5,55,122.5,280,F,Open,Single-ply,SBD,,125
1,Kimberly Pfeiffer-Packer,CA,75,68.3,57,160,92.5,170,422.5,F,Masters 55-59,Single-ply,SBD,,
1,Matthew McCoy,CA,90,83.6,17,177.5,85,192.5,455,M,Juniors 16-17,Single-ply,SBD,90,197.5
1,Carlos Ramirez #7,CA,90,87.6,21,280,192.5,255,727.5,M,Juniors 20-23,Single-ply,SBD,,
1,Carlos Ramirez #7,CA,90,87.6,21,280,192.5,255,727.5,M,Open,Single-ply,SBD,,
DQ,Darrin Guerra,CA,140,134.4,48,227.5,,277.5,,M,Masters 45-49,Single-ply,SBD,,
1,Tonia Gonzalez,CA,75,73.5,30,,82.5,,82.5,F,Open,Raw,B,,
1,Jesse Lanuevo,CA,60,59.9,29,,135,,135,M,Open,Raw,B,,
1,Scott George,CA,125,123.7,27,,195,,195,M,Open,Raw,B,,
1,Quinn Bremes,CA,140,134.1,57,,182.5,,182.5,M,Masters 55-59,Raw,B,,
DQ,Darrin Guerra,CA,140,134.4,48,,,,,M,Masters 45-49,Single-ply,B,,
1,Marilyn Zapata,CA,52,48.4,21,,,125,125,F,Juniors 20-23,Raw,D,,
1,Marilyn Zapata,CA,52,48.4,21,,,125,125,F,Open,Raw,D,,
1,Ashley Diaz,CA,82.5,80.4,33,,,165,165,F,Open,Raw,D,,
1,Jesse Lanuevo,CA,60,59.9,29,,,265,265,M,Open,Raw,D,,
1,Scott George,CA,125,123.7,27,,,255,255,M,Open,Raw,D,,
1,Lazaro Rodriguez Jr,CA,140,128.5,29,,,365,365,M,Open,Raw,D,,
1,Juliet Woodards,CA,44,39.1,11,,25,62.5,87.5,F,Open,Raw,BD,,
1,Tonia Gonzalez,CA,75,73.5,30,,82.5,157.5,240,F,Open,Raw,BD,,
1,Ashley Diaz,CA,82.5,80.4,33,,70,165,235,F,Open,Raw,BD,,
1,Jimmy Flores,CA,110,104.8,50,,185,290,475,M,Open,Raw,BD,,
1,Jimmy Flores,CA,110,104.8,50,,185,290,475,M,Masters 50-54,Raw,BD,,
