Name,Division,BodyweightKg,WeightClassKg,Bench1Kg,Bench2Kg,Bench3Kg,Best3BenchKg,Sex,TotalKg,Place,Event,Equipment,BirthDate,State,Country
Natalie Cameron,F-C-Open,70.6,72,82.5,87.5,-90,87.5,F,87.5,1,B,Raw,,,
Zoe Clark,F-C-Open,71.65,72,77.5,80,-82.5,80,F,80,1,B,Raw,,,
Bea Wright,F-C-Open,71.7,72,75,-77.5,77.5,77.5,F,77.5,2,B,Raw,,,
Rebecca Kay,F-C-Open,66.75,72,72.5,75,-77.5,75,F,75,3,B,Raw,,,
Gemma Surtees,F-C-Open,68,72,67.5,72.5,75,75,F,75,1,B,Raw,,,
Ana Rojo-Echeburua,F-C-Open,63.7,72,67.5,-70,70,70,F,70,2,B,Raw,,,
Rachael Atkinson,F-C-Open,67.05,72,65,70,-72.5,70,F,70,3,B,Raw,,,
Christina Appleby-Phillips,F-C-Open,80.75,84,107.5,112.5,-121,112.5,F,112.5,4,B,Raw,,,
Claire Tocher,F-C-Open,79.65,84,95,100,-102.5,100,F,100,5,B,Raw,,,
Natasha Eaton,F-C-Open,80.35,84,75,80,-82.5,80,F,80,1,B,Raw,,,
Camille Holland,F-C-Open,132.85,84+,102.5,110,115,115,F,115,2,B,Raw,,,
Kate Sweatman,F-C-Open,120.5,84+,90,-95,95,95,F,95,3,B,Raw,,,
Scarlett Sotiris,F-C-Open,95.35,84+,75,82.5,87.5,87.5,F,87.5,4,B,Raw,,,
Grace Howes,F-C-U18,69.7,72,75,80,-82.5,80,F,80,5,B,Raw,,,
Daniella-Jade Chester,F-C-U18,67.5,72,45,50,-55,50,F,50,6,B,Raw,,,
Lucy Naden,F-C-U18,90.6,84+,65,70,-72.5,70,F,70,1,B,Raw,,,
Ashley Lewis #1,F-C-U23,71.25,72,-87.5,90,-92.5,90,F,90,1,B,Raw,,,
Sophia Ellis,F-C-U23,71.1,72,82.5,87.5,-90,87.5,F,87.5,2,B,Raw,,,
Holly O'Shea,F-C-U23,68.8,72,77.5,80,82.5,82.5,F,82.5,1,B,Raw,,,
Holly Hume,F-C-U23,70.7,72,75,-80,-80,75,F,75,2,B,Raw,,,
Charley Bond,F-C-U23,68.5,72,62.5,67.5,-70,67.5,F,67.5,1,B,Raw,,,
Lizzie Jones,F-C-U23,74.75,84,75,80,-82.5,80,F,80,2,B,Raw,,,
Charlie Chester,F-C-U23,111.7,84+,95,102.5,-110,102.5,F,102.5,1,B,Raw,,SW,England
Melissa Bird,F-C-U23,103.45,84+,80,85,-90,85,F,85,2,B,Raw,,SW,England
Ruta Lendraitiene,F-C-M1,70.95,72,87.5,92.5,-98,92.5,F,92.5,1,B,Raw,,YNE,England
Wendie Kirkland,F-C-M1,70.55,72,65,70,75,75,F,75,1,B,Raw,,NM,England
Lucy Hyde,F-C-M1,81.75,84,82.5,87.5,-91.5,87.5,F,87.5,2,B,Raw,,,
Sarah Marsden,F-C-M1,82.95,84,67.5,72.5,77.5,77.5,F,77.5,3,B,Raw,,EM,England
Sarah Bouskill,F-C-M1,114.6,84+,92.5,97.5,-103.5,97.5,F,97.5,4,B,Raw,,NM,England
Jacqueline Gough,F-C-M1,147,84+,90,97.5,-103.5,97.5,F,97.5,1,B,Raw,1977-01-12,NM,England
Lisa Pilkington,F-C-M1,106.9,84+,80,85,90,90,F,90,1,B,Raw,,NW,England
Kelly Layden-Farrer,F-C-M1,111.2,84+,70,75,80,80,F,80,1,B,Raw,,,
Rita Shergold,F-C-M2,67.7,72,65,70,-72.5,70,F,70,2,B,Raw,,,
Nicola Elding,F-C-M2,68.7,72,47.5,55,60,60,F,60,1,B,Raw,1968-04-01,,
Kelly Clark #1,F-C-M2,68.4,72,52.5,-55,-55,52.5,F,52.5,1,B,Raw,,YNE,England
Julie Rose,F-C-M2,71.45,72,47.5,52.5,-55,52.5,F,52.5,1,B,Raw,,,
Julie Briggs,F-C-M2,70.6,72,45,47.5,-55,47.5,F,47.5,2,B,Raw,,,
Sue Giles,F-C-M2,77,84,55,60,-62.5,60,F,60,3,B,Raw,,NM,England
Danielle Malcolm,F-C-Open,46.55,47,65,70,72.5,72.5,F,72.5,4,B,Raw,,,
Alex Bates #1,F-C-Open,51.65,52,62.5,67.5,-70,67.5,F,67.5,5,B,Raw,,,
Jazmine Franks,F-C-Open,51.9,52,55,-60,62.5,62.5,F,62.5,6,B,Raw,,NW,England
Vicky Mirceta,F-C-Open,50.05,52,60,-65,-65,60,F,60,7,B,Raw,,,
Emily Dodd,F-C-Open,57,57,70,75,77.5,77.5,F,77.5,1,B,Raw,,,
Claire Burns,F-C-Open,56.1,57,70,72.5,-77.5,72.5,F,72.5,2,B,Raw,,,
Elaine Collins,F-C-Open,56.95,57,62.5,67.5,70,70,F,70,3,B,Raw,,,
Emma Ludlow,F-C-Open,55.65,57,62.5,65,-70,65,F,65,1,B,Raw,,,
Emily Przeslak,F-C-Open,56.5,57,55,60,65,65,F,65,2,B,Raw,,GL,England
Ellie Steel,F-C-Open,58.4,63,95,100.5,-105,100.5,F,100.5,3,B,Raw,,SM,England
Hollie Johnson,F-C-Open,62,63,80,85,87.5,87.5,F,87.5,1,B,Raw,,YNE,England
Francesca Fernandes,F-C-Open,60.1,63,70,75,77.5,77.5,F,77.5,2,B,Raw,,,
Stephanie Gagnon,F-C-Open,61.4,63,70,75,-77.5,75,F,75,1,B,Raw,,,
Amina Bux,F-C-Open,62.8,63,65,70,-75,70,F,70,1,B,Raw,,EM,England
Rachael Camp,F-C-Open,60,63,52.5,-57.5,-57.5,52.5,F,52.5,2,B,Raw,,,
Ellie Kirby,F-C-U18,58.6,63,40,45,-47.5,45,F,45,3,B,Raw,,,
Amrita Panesar,F-C-U23,48.2,52,52.5,57.5,60,60,F,60,4,B,Raw,,,
Sorrel Hens,F-C-U23,51.15,52,50,55,57.5,57.5,F,57.5,5,B,Raw,,,
Lydia Forrest,F-C-U23,56.05,57,55,57.5,60,60,F,60,1,B,Raw,,,
Anisha Chopra,F-C-U23,56.35,57,-47.5,47.5,-50,47.5,F,47.5,1,B,Raw,,,
Amelia Maycock,F-C-U23,61.85,63,57.5,62.5,65,65,F,65,2,B,Raw,,,
Rachel Leck,F-C-U23,61.6,63,57.5,-62.5,62.5,62.5,F,62.5,1,B,Raw,,,
Amanda Holloway,F-C-M1,51.9,52,60,65,-67.5,65,F,65,2,B,Raw,,,
Amanda Hughes,F-C-M1,50.85,52,55,60,62.5,62.5,F,62.5,1,B,Raw,,,
Helen Hughes #1,F-C-M1,56,57,80,84,-86,84,F,84,2,B,Raw,,,
Abi Graham,F-C-M1,62.2,63,80,85,90,90,F,90,1,B,Raw,,EM,England
Galit Goldshmid,F-C-M1,61.15,63,77.5,82.5,-85,82.5,F,82.5,2,B,Raw,,,
Kerys Knight,F-C-M1,61.65,63,62.5,67.5,72.5,72.5,F,72.5,3,B,Raw,1970-01-12,,
Emma Stott,F-C-M1,57.3,63,62.5,67.5,70,70,F,70,4,B,Raw,,,
Michelle Franklin,F-C-M2,51.6,52,45,50,-55,50,F,50,1,B,Raw,,NM,England
Katie Cooke,F-C-M2,54.5,57,60,62.5,65,65,F,65,2,B,Raw,,,
Moira Pritchard,F-C-M2,62.5,63,-62.5,-62.5,62.5,62.5,F,62.5,3,B,Raw,,,
Angela Houldershaw,F-C-M2,62.8,63,45,50,-52.5,50,F,50,4,B,Raw,,,
Jenny Hunter,F-C-M3,51.8,52,60,65,-68,65,F,65,5,B,Raw,,EM,England
Judith McGauley,F-C-M4,57.5,63,32.5,35,37.5,37.5,F,37.5,1,B,Raw,,,
Daniel Thomas #2,M-C-Open,64.6,66,120,140,-150,140,M,140,1,B,Raw,,,
Chris Jennings,M-C-Open,65.4,66,117.5,125,-130,125,M,125,2,B,Raw,,,
Danny Potter,M-C-Open,73.8,74,150,-157.5,157.5,157.5,M,157.5,1,B,Raw,,NW,England
Emmanuel Franklin,M-C-Open,71.5,74,152.5,-157.5,-157.5,152.5,M,152.5,2,B,Raw,,GL,England
Christopher Simmons,M-C-Open,71.7,74,140,150,-155,150,M,150,3,B,Raw,,,
Chris Eaton,M-C-Open,72.7,74,110,120,125,125,M,125,4,B,Raw,,NW,England
Lee Gray,M-C-Open,73.1,74,125,-130,-130,125,M,125,5,B,Raw,,,
Mike Rose #2,M-C-Open,73.1,74,120,125,-127.5,125,M,125,6,B,Raw,,,
Christopher Teague,M-C-Open,82.5,83,160,170,-175,170,M,170,1,B,Raw,,,
Dan Magee,M-C-Open,82.6,83,147.5,155,160,160,M,160,2,B,Raw,,,
James Vickers,M-C-Open,82,83,142.5,150,155,155,M,155,3,B,Raw,,,
Jack Spreadbury,M-C-Open,79.9,83,135,142.5,-145,142.5,M,142.5,4,B,Raw,,,
Paul Marsh,M-C-Open,82.2,83,142.5,-147.5,-147.5,142.5,M,142.5,5,B,Raw,,,
Ashley Liston,M-C-Open,91.6,93,185,192.5,-200,192.5,M,192.5,1,B,Raw,,,
Joel Fraser,M-C-Open,91.1,93,170,177.5,-180,177.5,M,177.5,2,B,Raw,,,
Wesley McGuinness,M-C-Open,92.1,93,160,167.5,-172.5,167.5,M,167.5,3,B,Raw,,,
Alexander Anderson,M-C-Open,91,93,155,162.5,-170,162.5,M,162.5,4,B,Raw,,,
Matt Merrick,M-C-Open,91,93,135,145,152.5,152.5,M,152.5,5,B,Raw,,,
Mark Cummins,M-C-Open,90.7,93,140,150,-157.5,150,M,150,6,B,Raw,,,
Jamie Avenell,M-C-Open,90.4,93,-117.5,125,130,130,M,130,7,B,Raw,,,
Lewis Jones,M-C-Open,89.1,93,-170,-170,,,M,,DQ,B,Raw,,,
Edward Owen #1,M-C-U18,83,83,105,110,115,115,M,115,1,B,Raw,2003-12-01,,
Tim Simons,M-C-U18,89.3,93,120,127.5,-135,127.5,M,127.5,1,B,Raw,,,
Jamie Green #1,M-C-U18,92,93,90,105,112.5,112.5,M,112.5,2,B,Raw,,,
James Leaper,M-C-U23,63.3,66,105,110,115,115,M,115,1,B,Raw,,,
Afzol Ali,M-C-U23,63.1,66,105,110,112.5,112.5,M,112.5,2,B,Raw,1997-05-26,,
Diptarko Chowdhury,M-C-U23,65.6,66,105,110,-115,110,M,110,3,B,Raw,,,
Ifty Hussain,M-C-U23,65.3,66,-105,-105,-110,,M,,DQ,B,Raw,,,
Raghul Parthipan,M-C-U23,72.3,74,127.5,135,137.5,137.5,M,137.5,1,B,Raw,,,
William Reid,M-C-U23,73.1,74,130,135,-140,135,M,135,2,B,Raw,,,
Joseph Strike,M-C-U23,68.9,74,100,105,107.5,107.5,M,107.5,3,B,Raw,,,
Harry Larman,M-C-U23,79.2,83,160,167.5,-175,167.5,M,167.5,1,B,Raw,,,
Anujan Srikantha,M-C-U23,80.2,83,155,160,-170,160,M,160,2,B,Raw,,,
Curtis Taylor,M-C-U23,82.9,83,150,155,-157.5,155,M,155,3,B,Raw,,,
Arron O'Neill,M-C-U23,82.1,83,135,142.5,-150,142.5,M,142.5,4,B,Raw,,,
Joshua Steen,M-C-U23,77.6,83,115,120,-125,120,M,120,5,B,Raw,,,
Oliver Davies,M-C-U23,78.3,83,110,115,-120,115,M,115,6,B,Raw,,,
Luke Tolman,M-C-U23,92.5,93,195,205,213,213,M,213,1,B,Raw,,,
Charlie Hibbert,M-C-U23,92.6,93,157.5,165,170,170,M,170,2,B,Raw,,,
Josh Pollard,M-C-U23,91.45,93,145,152.5,-160,152.5,M,152.5,3,B,Raw,,,
Jamaar Alexander,M-C-U23,87.5,93,130,132.5,135,135,M,135,4,B,Raw,,,
Roger Hamilton-Smith,M-C-M1,65.5,66,107.5,117.5,-122.5,117.5,M,117.5,1,B,Raw,,,
Jasvinder Singh,M-C-M1,81,83,140,150,-160,150,M,150,1,B,Raw,,WM,England
Shaun Haynes,M-C-M1,81.4,83,140,147.5,-152.5,147.5,M,147.5,2,B,Raw,,,
Craig Wilkins,M-C-M1,79.3,83,135,140,145,145,M,145,3,B,Raw,,SE,England
Malcolm Long,M-C-M1,80.3,83,125,127.5,135,135,M,135,4,B,Raw,,,
Jim Wands,M-C-M1,81.4,83,125,130,132.5,132.5,M,132.5,5,B,Raw,,,
Sheridan Wray,M-C-M1,92.6,93,175,187.5,195,195,M,195,1,B,Raw,,,
Drew Blackman,M-C-M1,91,93,147.5,155,-160,155,M,155,2,B,Raw,,,
Darren Stafford,M-C-M1,87,93,125,130,132.5,132.5,M,132.5,3,B,Raw,,,
Allen Ottolangui,M-C-M2,74,74,90,-100,,90,M,90,1,B,Raw,,,
Kevin Barrs,M-C-M2,81.9,83,125,132.5,-135,132.5,M,132.5,1,B,Raw,,,
David Horn,M-C-M2,81.7,83,102.5,110,-112.5,110,M,110,2,B,Raw,,,
Harrold Huldershaw,M-C-M2,91.9,93,90,102.5,105,105,M,105,1,B,Raw,,,
David Russle,M-C-M3,71.3,74,90,100,-105,100,M,100,1,B,Raw,,,
Kevin Payne #2,M-C-M3,70.9,74,77.5,82.5,-87.5,82.5,M,82.5,2,B,Raw,,,
John O'Riordan,M-C-M3,90.2,93,110,125,-130,125,M,125,1,B,Raw,,,
Ted Brown,M-C-M5,58.55,59,70,75,77.5,77.5,M,77.5,1,B,Raw,1930-07-27,,
David Pelta,M-C-M4,64.5,66,90,97.5,100,100,M,100,1,B,Raw,,,
Michael John James,M-C-M4,65.3,66,90,95,-97.5,95,M,95,2,B,Raw,,,
Malcolm Bainbridge,M-C-M4,67.3,74,72.5,77.5,-82.5,77.5,M,77.5,1,B,Raw,,,
Mike Edwards,M-C-M4,90.3,93,92.5,-97.5,97.5,97.5,M,97.5,1,B,Raw,,,
Clive Lingard,M-C-M4,91.65,93,-110,-110,-110,,M,,DQ,B,Raw,,,
Mihails Monastirskis,M-C-Open,103.4,105,210,212.5,-226,212.5,M,212.5,1,B,Raw,,,
Richard Gibson,M-C-Open,104,105,177.5,187.5,190,190,M,190,2,B,Raw,,,
Joey Watson,M-C-Open,104.3,105,180,-185,185,185,M,185,3,B,Raw,,,
Johnathan Lenzi,M-C-Open,103.6,105,165,175,180,180,M,180,4,B,Raw,,,
James Blundell,M-C-Open,102.5,105,165,175,-185,175,M,175,5,B,Raw,,,
Nathan Oxford,M-C-Open,101.1,105,150,155,160,160,M,160,6,B,Raw,,,
Christopher Street,M-C-Open,101.7,105,-157.5,157.5,-167.5,157.5,M,157.5,7,B,Raw,,,
Christopher Vest,M-C-Open,97.3,105,145,155,-162.5,155,M,155,8,B,Raw,,,
Chris Jones #3,M-C-Open,104.5,105,142.5,-150,-150,142.5,M,142.5,9,B,Raw,,,
Kieran Gray,M-C-Open,119,120,215,-220,-235.5,215,M,215,1,B,Raw,,YNE,England
Trevor Jordan,M-C-Open,116.7,120,177.5,187.5,-197.5,187.5,M,187.5,2,B,Raw,,,
Carl Sheppard,M-C-Open,111.4,120,150,157.5,162.5,162.5,M,162.5,3,B,Raw,,,
Mathieu Brignall,M-C-Open,163.2,120+,202.5,215,220,220,M,220,1,B,Raw,,YNE,England
Ryan Phillips-Martin,M-C-Open,129.5,120+,202.5,-207.5,-207.5,202.5,M,202.5,2,B,Raw,,,
Calum Nicholls,M-C-Open,142.8,120+,190,200,-205,200,M,200,3,B,Raw,,,
Martin McGimpsey,M-C-Open,153.7,120+,195,200,-205,200,M,200,4,B,Raw,,,
Ross Arbery,M-C-Open,130.7,120+,147.5,-152.5,152.5,152.5,M,152.5,5,B,Raw,,,
Edward Crossley,M-C-U18,100.1,105,135,145,150,150,M,150,1,B,Raw,,,
Josh Pearson,M-C-U18,116.2,120,132.5,137.5,-140,137.5,M,137.5,1,B,Raw,,,
Callum Crozier,M-C-U23,104.6,105,160,170,180,180,M,180,1,B,Raw,,,
Tom Bugler,M-C-U23,98.6,105,142.5,150,-152.5,150,M,150,2,B,Raw,,,
Michael Monda,M-C-U23,104,105,125,132.5,140,140,M,140,3,B,Raw,,,
Bradley Horne #1,M-C-U23,115.2,120,182.5,190,-200,190,M,190,1,B,Raw,,,
Dylan Hurdus,M-C-U23,113.9,120,120,127.5,130,130,M,130,2,B,Raw,,,
Joseph Guest-Bourne,M-C-U23,152.2,120+,187.5,200,-210,200,M,200,1,B,Raw,,,
Ben Rant,M-C-U23,158.1,120+,177.5,185,190,190,M,190,2,B,Raw,,,
Harbans Bansal,M-C-M1,99.1,105,-190,190,-197.5,190,M,190,1,B,Raw,,,
Christian McCarlie,M-C-M1,102.6,105,150,160,-165,160,M,160,2,B,Raw,,,
Sidhyartrha Datta,M-C-M1,99.5,105,110,120,-132.5,120,M,120,3,B,Raw,,,
Scott Simon #1,M-C-M1,105.2,120,180,187.5,190,190,M,190,1,B,Raw,,,
Chris Baker #1,M-C-M1,147.9,120+,210,220,222.5,222.5,M,222.5,1,B,Raw,,YNE,England
Isaac Ugen,M-C-M1,131.5,120+,150,155,162.5,162.5,M,162.5,2,B,Raw,,,
Scott Squire,M-C-M1,205.1,120+,-207.5,-207.5,-207.5,,M,,DQ,B,Raw,,,
Marc Giles,M-C-M2,104.1,105,152.5,162.5,172.5,172.5,M,172.5,1,B,Raw,1964-08-07,NM,England
Alistair Murdoch,M-C-M2,110.9,120,200,210,-215,210,M,210,1,B,Raw,,,
Nigel Moss,M-C-M2,130.5,120+,170,185,190,190,M,190,1,B,Raw,,,
Robert Baxter,M-C-M3,101.5,105,115,125,130,130,M,130,1,B,Raw,,,
Julian Massey,M-C-M3,109.4,120,105,110,112.5,112.5,M,112.5,1,B,Raw,,,
