Division,WeightClassKg,Place,Name,Team,BodyweightKg,Best3SquatKg,Best3BenchKg,Best3DeadliftKg,TotalKg,Equipment,Event,Sex,BirthDate
Boys,,NS,Jayson Cooper,Floydada,,,,,,Single-ply,SBD,M,
Boys,55.79,1,Clay Humphrey,Ralls,53.84,81.65,40.82,90.72,213.19,Single-ply,SBD,M,
Boys,59.87,1,Brennan Riker,Post,57.42,192.78,104.33,176.9,474,Single-ply,SBD,M,
Boys,59.87,2,Toby Crabb,Slaton,57.97,161.03,106.59,151.95,419.57,Single-ply,SBD,M,
Boys,59.87,3,Toby Rios,Ralls,59.78,161.03,92.99,151.95,405.97,Single-ply,SBD,M,
Boys,59.87,4,Dillon Bruington,Floydada,57.79,142.88,74.84,145.15,362.87,Single-ply,SBD,M,
Boys,59.87,5,Ivan Hernandez,Ralls,59.87,106.59,61.23,115.67,283.5,Single-ply,SBD,M,
Boys,59.87,6,Jarrod Burgess,Ralls,59.06,99.79,65.77,113.4,278.96,Single-ply,SBD,M,
Boys,59.87,DQ,Phillip Rodriguez,Floydada,58.69,,,,,Single-ply,SBD,M,
Boys,59.87,DQ,Matthew Luna,Floydada,59.51,,,,,Single-ply,SBD,M,
Boys,67.13,1,Trae Zavala,Ralls,64.55,147.42,102.06,149.69,399.16,Single-ply,SBD,M,
Boys,67.13,2,Quincy Graham,Slaton,63.32,120.2,77.11,117.93,315.25,Single-ply,SBD,M,
Boys,67.13,3,Cristian Hernandez #2,Floydada,66.13,115.67,65.77,111.13,292.57,Single-ply,SBD,M,
Boys,67.13,4,Jayden Aleman,Slaton,66.41,83.91,,,83.91,Single-ply,S,M,
Boys,67.13,DQ,Landen Simmons,Slaton,63.59,,,,,Single-ply,SBD,M,
Boys,74.84,1,Alex Carmona,Floydada,72.12,231.33,142.88,215.46,589.67,Single-ply,SBD,M,
Boys,74.84,2,Chris Rader,Slaton,71.21,204.12,129.27,204.12,537.51,Single-ply,SBD,M,
Boys,74.84,3,Eddie Betancourt,Slaton,70.76,183.7,127.01,206.38,517.1,Single-ply,SBD,M,
Boys,74.84,4,Mauro Moreno,Ralls,69.72,183.7,117.93,190.51,492.15,Single-ply,SBD,M,
Boys,74.84,5,Elijah Zavala,Ralls,70.94,172.37,104.33,190.51,467.2,Single-ply,SBD,M,
Boys,74.84,6,Andrew Suarez,Floydada,74.3,156.49,102.06,183.7,442.25,Single-ply,SBD,M,
Boys,74.84,7,Landon Pevey,Post,73.48,176.9,92.99,158.76,428.64,Single-ply,SBD,M,
Boys,74.84,8,Jacorien Doss,Slaton,72.85,156.49,102.06,165.56,424.11,Single-ply,SBD,M,
Boys,74.84,9,Cj Anzley,Slaton,69.85,147.42,108.86,163.29,419.57,Single-ply,SBD,M,
Boys,74.84,10,Bryson Salazar,Slaton,70.4,140.61,102.06,,242.67,Single-ply,SB,M,
Boys,82.1,1,Nick Quintana,Post,75.84,165.56,88.45,170.1,424.11,Single-ply,SBD,M,
Boys,82.1,2,Cj Linarez,Slaton,77.56,136.08,,,136.08,Single-ply,S,M,
Boys,89.81,1,Sergio Salinas,Ralls,83.46,222.26,117.93,224.53,564.72,Single-ply,SBD,M,
Boys,89.81,2,Alejandro Rodriguez,Post,83.87,154.22,99.79,158.76,412.77,Single-ply,SBD,M,
Boys,99.79,1,Cole Boren,Post,90.63,242.67,149.69,204.12,596.47,Single-ply,SBD,M,
Boys,109.77,1,Knoah Escobedo,Post,102.51,181.44,106.59,170.1,458.13,Single-ply,SBD,M,
Boys,109.77,2,Marcus Collins #3,Floydada,101.33,181.44,92.99,156.49,430.91,Single-ply,SBD,M,
Boys,124.74,1,Taye Perez,Post,118.39,238.14,170.1,244.94,653.17,Single-ply,SBD,M,
Boys,124.74,2,Chris Jackson #5,Post,116.57,233.6,151.95,226.8,612.35,Single-ply,SBD,M,
Boys,139.71,1,Javen Diaz,Post,135.62,240.4,140.61,201.85,582.87,Single-ply,SBD,M,
